<?xml version="1.0" encoding="UTF-8"?>
<svg width="240px" height="233px" viewBox="0 0 240 233" version="1.1" xmlns="http://www.w3.org/2000/svg" xmlns:xlink="http://www.w3.org/1999/xlink">
    <!-- Generator: Sketch 54.1 (76490) - https://sketchapp.com -->
    <title>7</title>
    <desc>Created with Sketch.</desc>
    <defs>
        <path d="M120,240 C186.27417,240 240,186.27417 240,120 C240,53.72583 186.27417,0 120,0 C53.72583,0 0,53.72583 0,120 C0,186.27417 53.72583,240 120,240 Z M120,177.336815 C88.3337517,177.336815 62.6631854,151.666248 62.6631854,120 C62.6631854,88.3337517 88.3337517,62.6631854 120,62.6631854 C151.666248,62.6631854 177.336815,88.3337517 177.336815,120 C177.336815,151.666248 151.666248,177.336815 120,177.336815 Z" id="path-1"></path>
    </defs>
    <g id="Final-2" stroke="none" stroke-width="1" fill="none" fill-rule="evenodd">
        <g id="Kit" transform="translate(-20.000000, -3023.000000)">
            <g id="7" transform="translate(20.000000, 3019.000000)">
                <mask id="mask-2" fill="white">
                    <use xlink:href="#path-1"></use>
                </mask>
                <g id="Mask" fill-rule="nonzero"></g>
                <g id="Group-4" mask="url(#mask-2)" stroke="#80CDF8">
                    <g transform="translate(-12.189142, -7.985989)">
                        <polygon id="Oval-Copy-40" points="15.6617463 18.7911665 18.7940956 15.6593055 15.6617463 12.5274444 12.529397 15.6593055"></polygon>
                        <polygon id="Oval-Copy-39" points="28.1911434 18.7911665 31.3234926 15.6593055 28.1911434 12.5274444 25.0587941 15.6593055"></polygon>
                        <polygon id="Oval-Copy-38" points="40.7205404 18.7911665 43.8528897 15.6593055 40.7205404 12.5274444 37.5881911 15.6593055"></polygon>
                        <polygon id="Oval-Copy-37" points="53.2499375 18.7911665 56.3822867 15.6593055 53.2499375 12.5274444 50.1175882 15.6593055"></polygon>
                        <polygon id="Oval-Copy-36" points="65.7793345 18.7911665 68.9116838 15.6593055 65.7793345 12.5274444 62.6469852 15.6593055"></polygon>
                        <polygon id="Oval-Copy-35" points="78.3087315 18.7911665 81.4410808 15.6593055 78.3087315 12.5274444 75.1763823 15.6593055"></polygon>
                        <polygon id="Oval-Copy-34" points="90.8381286 18.7911665 93.9704779 15.6593055 90.8381286 12.5274444 87.7057793 15.6593055"></polygon>
                        <polygon id="Oval-Copy-33" points="103.367526 18.7911665 106.499875 15.6593055 103.367526 12.5274444 100.235176 15.6593055"></polygon>
                        <polygon id="Oval-Copy-32" points="115.896923 18.7911665 119.029272 15.6593055 115.896923 12.5274444 112.764573 15.6593055"></polygon>
                        <polygon id="Oval-Copy-31" points="128.42632 18.7911665 131.558669 15.6593055 128.42632 12.5274444 125.29397 15.6593055"></polygon>
                        <polygon id="Oval-Copy-30" points="140.955717 18.7911665 144.088066 15.6593055 140.955717 12.5274444 137.823368 15.6593055"></polygon>
                        <polygon id="Oval-Copy-29" points="153.485114 18.7911665 156.617463 15.6593055 153.485114 12.5274444 150.352765 15.6593055"></polygon>
                        <polygon id="Oval-Copy-28" points="166.014511 18.7911665 169.14686 15.6593055 166.014511 12.5274444 162.882162 15.6593055"></polygon>
                        <polygon id="Oval-Copy-27" points="178.543908 18.7911665 181.676257 15.6593055 178.543908 12.5274444 175.411559 15.6593055"></polygon>
                        <polygon id="Oval-Copy-26" points="191.073305 18.7911665 194.205654 15.6593055 191.073305 12.5274444 187.940956 15.6593055"></polygon>
                        <polygon id="Oval-Copy-25" points="203.602702 18.7911665 206.735051 15.6593055 203.602702 12.5274444 200.470353 15.6593055"></polygon>
                        <polygon id="Oval-Copy-24" points="216.132099 18.7911665 219.264448 15.6593055 216.132099 12.5274444 212.99975 15.6593055"></polygon>
                        <polygon id="Oval-Copy-23" points="228.661496 18.7911665 231.793845 15.6593055 228.661496 12.5274444 225.529147 15.6593055"></polygon>
                        <polygon id="Oval-Copy-22" points="241.190893 18.7911665 244.323242 15.6593055 241.190893 12.5274444 238.058544 15.6593055"></polygon>
                        <polygon id="Oval-Copy-21" points="253.72029 18.7911665 256.852639 15.6593055 253.72029 12.5274444 250.587941 15.6593055"></polygon>
                        <polygon id="Oval-Copy-83" points="9.39704779 31.3186109 12.529397 28.1867498 9.39704779 25.0548887 6.26469852 28.1867498"></polygon>
                        <polygon id="Oval-Copy-82" points="21.9264448 31.3186109 25.0587941 28.1867498 21.9264448 25.0548887 18.7940956 28.1867498"></polygon>
                        <polygon id="Oval-Copy-81" points="34.4558419 31.3186109 37.5881911 28.1867498 34.4558419 25.0548887 31.3234926 28.1867498"></polygon>
                        <polygon id="Oval-Copy-80" points="46.9852389 31.3186109 50.1175882 28.1867498 46.9852389 25.0548887 43.8528897 28.1867498"></polygon>
                        <polygon id="Oval-Copy-79" points="59.514636 31.3186109 62.6469852 28.1867498 59.514636 25.0548887 56.3822867 28.1867498"></polygon>
                        <polygon id="Oval-Copy-78" points="72.044033 31.3186109 75.1763823 28.1867498 72.044033 25.0548887 68.9116838 28.1867498"></polygon>
                        <polygon id="Oval-Copy-77" points="84.5734301 31.3186109 87.7057793 28.1867498 84.5734301 25.0548887 81.4410808 28.1867498"></polygon>
                        <polygon id="Oval-Copy-76" points="97.1028271 31.3186109 100.235176 28.1867498 97.1028271 25.0548887 93.9704779 28.1867498"></polygon>
                        <polygon id="Oval-Copy-75" points="109.632224 31.3186109 112.764573 28.1867498 109.632224 25.0548887 106.499875 28.1867498"></polygon>
                        <polygon id="Oval-Copy-74" points="122.161621 31.3186109 125.29397 28.1867498 122.161621 25.0548887 119.029272 28.1867498"></polygon>
                        <polygon id="Oval-Copy-73" points="134.691018 31.3186109 137.823368 28.1867498 134.691018 25.0548887 131.558669 28.1867498"></polygon>
                        <polygon id="Oval-Copy-72" points="147.220415 31.3186109 150.352765 28.1867498 147.220415 25.0548887 144.088066 28.1867498"></polygon>
                        <polygon id="Oval-Copy-71" points="159.749812 31.3186109 162.882162 28.1867498 159.749812 25.0548887 156.617463 28.1867498"></polygon>
                        <polygon id="Oval-Copy-70" points="172.279209 31.3186109 175.411559 28.1867498 172.279209 25.0548887 169.14686 28.1867498"></polygon>
                        <polygon id="Oval-Copy-69" points="184.808606 31.3186109 187.940956 28.1867498 184.808606 25.0548887 181.676257 28.1867498"></polygon>
                        <polygon id="Oval-Copy-68" points="197.338004 31.3186109 200.470353 28.1867498 197.338004 25.0548887 194.205654 28.1867498"></polygon>
                        <polygon id="Oval-Copy-67" points="209.867401 31.3186109 212.99975 28.1867498 209.867401 25.0548887 206.735051 28.1867498"></polygon>
                        <polygon id="Oval-Copy-66" points="222.396798 31.3186109 225.529147 28.1867498 222.396798 25.0548887 219.264448 28.1867498"></polygon>
                        <polygon id="Oval-Copy-65" points="234.926195 31.3186109 238.058544 28.1867498 234.926195 25.0548887 231.793845 28.1867498"></polygon>
                        <polygon id="Oval-Copy-64" points="247.455592 31.3186109 250.587941 28.1867498 247.455592 25.0548887 244.323242 28.1867498"></polygon>
                        <polygon id="Oval-Copy-61" points="15.6617463 43.8460553 18.7940956 40.7141942 15.6617463 37.5823331 12.529397 40.7141942"></polygon>
                        <polygon id="Oval-Copy-60" points="28.1911434 43.8460553 31.3234926 40.7141942 28.1911434 37.5823331 25.0587941 40.7141942"></polygon>
                        <polygon id="Oval-Copy-59" points="40.7205404 43.8460553 43.8528897 40.7141942 40.7205404 37.5823331 37.5881911 40.7141942"></polygon>
                        <polygon id="Oval-Copy-58" points="53.2499375 43.8460553 56.3822867 40.7141942 53.2499375 37.5823331 50.1175882 40.7141942"></polygon>
                        <polygon id="Oval-Copy-57" points="65.7793345 43.8460553 68.9116838 40.7141942 65.7793345 37.5823331 62.6469852 40.7141942"></polygon>
                        <polygon id="Oval-Copy-56" points="78.3087315 43.8460553 81.4410808 40.7141942 78.3087315 37.5823331 75.1763823 40.7141942"></polygon>
                        <polygon id="Oval-Copy-55" points="90.8381286 43.8460553 93.9704779 40.7141942 90.8381286 37.5823331 87.7057793 40.7141942"></polygon>
                        <polygon id="Oval-Copy-54" points="103.367526 43.8460553 106.499875 40.7141942 103.367526 37.5823331 100.235176 40.7141942"></polygon>
                        <polygon id="Oval-Copy-53" points="115.896923 43.8460553 119.029272 40.7141942 115.896923 37.5823331 112.764573 40.7141942"></polygon>
                        <polygon id="Oval-Copy-52" points="128.42632 43.8460553 131.558669 40.7141942 128.42632 37.5823331 125.29397 40.7141942"></polygon>
                        <polygon id="Oval-Copy-51" points="140.955717 43.8460553 144.088066 40.7141942 140.955717 37.5823331 137.823368 40.7141942"></polygon>
                        <polygon id="Oval-Copy-50" points="153.485114 43.8460553 156.617463 40.7141942 153.485114 37.5823331 150.352765 40.7141942"></polygon>
                        <polygon id="Oval-Copy-49" points="166.014511 43.8460553 169.14686 40.7141942 166.014511 37.5823331 162.882162 40.7141942"></polygon>
                        <polygon id="Oval-Copy-48" points="178.543908 43.8460553 181.676257 40.7141942 178.543908 37.5823331 175.411559 40.7141942"></polygon>
                        <polygon id="Oval-Copy-47" points="191.073305 43.8460553 194.205654 40.7141942 191.073305 37.5823331 187.940956 40.7141942"></polygon>
                        <polygon id="Oval-Copy-46" points="203.602702 43.8460553 206.735051 40.7141942 203.602702 37.5823331 200.470353 40.7141942"></polygon>
                        <polygon id="Oval-Copy-45" points="216.132099 43.8460553 219.264448 40.7141942 216.132099 37.5823331 212.99975 40.7141942"></polygon>
                        <polygon id="Oval-Copy-44" points="228.661496 43.8460553 231.793845 40.7141942 228.661496 37.5823331 225.529147 40.7141942"></polygon>
                        <polygon id="Oval-Copy-43" points="241.190893 43.8460553 244.323242 40.7141942 241.190893 37.5823331 238.058544 40.7141942"></polygon>
                        <polygon id="Oval-Copy-42" points="253.72029 43.8460553 256.852639 40.7141942 253.72029 37.5823331 250.587941 40.7141942"></polygon>
                        <polygon id="Oval-Copy-167" points="9.39704779 56.3734996 12.529397 53.2416385 9.39704779 50.1097775 6.26469852 53.2416385"></polygon>
                        <polygon id="Oval-Copy-166" points="21.9264448 56.3734996 25.0587941 53.2416385 21.9264448 50.1097775 18.7940956 53.2416385"></polygon>
                        <polygon id="Oval-Copy-165" points="34.4558419 56.3734996 37.5881911 53.2416385 34.4558419 50.1097775 31.3234926 53.2416385"></polygon>
                        <polygon id="Oval-Copy-164" points="46.9852389 56.3734996 50.1175882 53.2416385 46.9852389 50.1097775 43.8528897 53.2416385"></polygon>
                        <polygon id="Oval-Copy-163" points="59.514636 56.3734996 62.6469852 53.2416385 59.514636 50.1097775 56.3822867 53.2416385"></polygon>
                        <polygon id="Oval-Copy-162" points="72.044033 56.3734996 75.1763823 53.2416385 72.044033 50.1097775 68.9116838 53.2416385"></polygon>
                        <polygon id="Oval-Copy-161" points="84.5734301 56.3734996 87.7057793 53.2416385 84.5734301 50.1097775 81.4410808 53.2416385"></polygon>
                        <polygon id="Oval-Copy-160" points="97.1028271 56.3734996 100.235176 53.2416385 97.1028271 50.1097775 93.9704779 53.2416385"></polygon>
                        <polygon id="Oval-Copy-159" points="109.632224 56.3734996 112.764573 53.2416385 109.632224 50.1097775 106.499875 53.2416385"></polygon>
                        <polygon id="Oval-Copy-158" points="122.161621 56.3734996 125.29397 53.2416385 122.161621 50.1097775 119.029272 53.2416385"></polygon>
                        <polygon id="Oval-Copy-157" points="134.691018 56.3734996 137.823368 53.2416385 134.691018 50.1097775 131.558669 53.2416385"></polygon>
                        <polygon id="Oval-Copy-156" points="147.220415 56.3734996 150.352765 53.2416385 147.220415 50.1097775 144.088066 53.2416385"></polygon>
                        <polygon id="Oval-Copy-155" points="159.749812 56.3734996 162.882162 53.2416385 159.749812 50.1097775 156.617463 53.2416385"></polygon>
                        <polygon id="Oval-Copy-154" points="172.279209 56.3734996 175.411559 53.2416385 172.279209 50.1097775 169.14686 53.2416385"></polygon>
                        <polygon id="Oval-Copy-153" points="184.808606 56.3734996 187.940956 53.2416385 184.808606 50.1097775 181.676257 53.2416385"></polygon>
                        <polygon id="Oval-Copy-152" points="197.338004 56.3734996 200.470353 53.2416385 197.338004 50.1097775 194.205654 53.2416385"></polygon>
                        <polygon id="Oval-Copy-151" points="209.867401 56.3734996 212.99975 53.2416385 209.867401 50.1097775 206.735051 53.2416385"></polygon>
                        <polygon id="Oval-Copy-150" points="222.396798 56.3734996 225.529147 53.2416385 222.396798 50.1097775 219.264448 53.2416385"></polygon>
                        <polygon id="Oval-Copy-149" points="234.926195 56.3734996 238.058544 53.2416385 234.926195 50.1097775 231.793845 53.2416385"></polygon>
                        <polygon id="Oval-Copy-148" points="247.455592 56.3734996 250.587941 53.2416385 247.455592 50.1097775 244.323242 53.2416385"></polygon>
                        <polygon id="Oval-Copy-145" points="15.6617463 68.900944 18.7940956 65.7690829 15.6617463 62.6372218 12.529397 65.7690829"></polygon>
                        <polygon id="Oval-Copy-144" points="28.1911434 68.900944 31.3234926 65.7690829 28.1911434 62.6372218 25.0587941 65.7690829"></polygon>
                        <polygon id="Oval-Copy-143" points="40.7205404 68.900944 43.8528897 65.7690829 40.7205404 62.6372218 37.5881911 65.7690829"></polygon>
                        <polygon id="Oval-Copy-142" points="53.2499375 68.900944 56.3822867 65.7690829 53.2499375 62.6372218 50.1175882 65.7690829"></polygon>
                        <polygon id="Oval-Copy-141" points="65.7793345 68.900944 68.9116838 65.7690829 65.7793345 62.6372218 62.6469852 65.7690829"></polygon>
                        <polygon id="Oval-Copy-140" points="78.3087315 68.900944 81.4410808 65.7690829 78.3087315 62.6372218 75.1763823 65.7690829"></polygon>
                        <polygon id="Oval-Copy-139" points="90.8381286 68.900944 93.9704779 65.7690829 90.8381286 62.6372218 87.7057793 65.7690829"></polygon>
                        <polygon id="Oval-Copy-138" points="103.367526 68.900944 106.499875 65.7690829 103.367526 62.6372218 100.235176 65.7690829"></polygon>
                        <polygon id="Oval-Copy-137" points="115.896923 68.900944 119.029272 65.7690829 115.896923 62.6372218 112.764573 65.7690829"></polygon>
                        <polygon id="Oval-Copy-136" points="128.42632 68.900944 131.558669 65.7690829 128.42632 62.6372218 125.29397 65.7690829"></polygon>
                        <polygon id="Oval-Copy-135" points="140.955717 68.900944 144.088066 65.7690829 140.955717 62.6372218 137.823368 65.7690829"></polygon>
                        <polygon id="Oval-Copy-134" points="153.485114 68.900944 156.617463 65.7690829 153.485114 62.6372218 150.352765 65.7690829"></polygon>
                        <polygon id="Oval-Copy-133" points="166.014511 68.900944 169.14686 65.7690829 166.014511 62.6372218 162.882162 65.7690829"></polygon>
                        <polygon id="Oval-Copy-132" points="178.543908 68.900944 181.676257 65.7690829 178.543908 62.6372218 175.411559 65.7690829"></polygon>
                        <polygon id="Oval-Copy-131" points="191.073305 68.900944 194.205654 65.7690829 191.073305 62.6372218 187.940956 65.7690829"></polygon>
                        <polygon id="Oval-Copy-130" points="203.602702 68.900944 206.735051 65.7690829 203.602702 62.6372218 200.470353 65.7690829"></polygon>
                        <polygon id="Oval-Copy-129" points="216.132099 68.900944 219.264448 65.7690829 216.132099 62.6372218 212.99975 65.7690829"></polygon>
                        <polygon id="Oval-Copy-128" points="228.661496 68.900944 231.793845 65.7690829 228.661496 62.6372218 225.529147 65.7690829"></polygon>
                        <polygon id="Oval-Copy-127" points="241.190893 68.900944 244.323242 65.7690829 241.190893 62.6372218 238.058544 65.7690829"></polygon>
                        <polygon id="Oval-Copy-126" points="253.72029 68.900944 256.852639 65.7690829 253.72029 62.6372218 250.587941 65.7690829"></polygon>
                        <polygon id="Oval-Copy-125" points="9.39704779 81.4283884 12.529397 78.2965273 9.39704779 75.1646662 6.26469852 78.2965273"></polygon>
                        <polygon id="Oval-Copy-124" points="21.9264448 81.4283884 25.0587941 78.2965273 21.9264448 75.1646662 18.7940956 78.2965273"></polygon>
                        <polygon id="Oval-Copy-123" points="34.4558419 81.4283884 37.5881911 78.2965273 34.4558419 75.1646662 31.3234926 78.2965273"></polygon>
                        <polygon id="Oval-Copy-122" points="46.9852389 81.4283884 50.1175882 78.2965273 46.9852389 75.1646662 43.8528897 78.2965273"></polygon>
                        <polygon id="Oval-Copy-121" points="59.514636 81.4283884 62.6469852 78.2965273 59.514636 75.1646662 56.3822867 78.2965273"></polygon>
                        <polygon id="Oval-Copy-120" points="72.044033 81.4283884 75.1763823 78.2965273 72.044033 75.1646662 68.9116838 78.2965273"></polygon>
                        <polygon id="Oval-Copy-119" points="84.5734301 81.4283884 87.7057793 78.2965273 84.5734301 75.1646662 81.4410808 78.2965273"></polygon>
                        <polygon id="Oval-Copy-118" points="97.1028271 81.4283884 100.235176 78.2965273 97.1028271 75.1646662 93.9704779 78.2965273"></polygon>
                        <polygon id="Oval-Copy-117" points="109.632224 81.4283884 112.764573 78.2965273 109.632224 75.1646662 106.499875 78.2965273"></polygon>
                        <polygon id="Oval-Copy-116" points="122.161621 81.4283884 125.29397 78.2965273 122.161621 75.1646662 119.029272 78.2965273"></polygon>
                        <polygon id="Oval-Copy-115" points="134.691018 81.4283884 137.823368 78.2965273 134.691018 75.1646662 131.558669 78.2965273"></polygon>
                        <polygon id="Oval-Copy-114" points="147.220415 81.4283884 150.352765 78.2965273 147.220415 75.1646662 144.088066 78.2965273"></polygon>
                        <polygon id="Oval-Copy-113" points="159.749812 81.4283884 162.882162 78.2965273 159.749812 75.1646662 156.617463 78.2965273"></polygon>
                        <polygon id="Oval-Copy-112" points="172.279209 81.4283884 175.411559 78.2965273 172.279209 75.1646662 169.14686 78.2965273"></polygon>
                        <polygon id="Oval-Copy-111" points="184.808606 81.4283884 187.940956 78.2965273 184.808606 75.1646662 181.676257 78.2965273"></polygon>
                        <polygon id="Oval-Copy-110" points="197.338004 81.4283884 200.470353 78.2965273 197.338004 75.1646662 194.205654 78.2965273"></polygon>
                        <polygon id="Oval-Copy-109" points="209.867401 81.4283884 212.99975 78.2965273 209.867401 75.1646662 206.735051 78.2965273"></polygon>
                        <polygon id="Oval-Copy-108" points="222.396798 81.4283884 225.529147 78.2965273 222.396798 75.1646662 219.264448 78.2965273"></polygon>
                        <polygon id="Oval-Copy-107" points="234.926195 81.4283884 238.058544 78.2965273 234.926195 75.1646662 231.793845 78.2965273"></polygon>
                        <polygon id="Oval-Copy-106" points="247.455592 81.4283884 250.587941 78.2965273 247.455592 75.1646662 244.323242 78.2965273"></polygon>
                        <polygon id="Oval-Copy-103" points="15.6617463 93.9558327 18.7940956 90.8239716 15.6617463 87.6921105 12.529397 90.8239716"></polygon>
                        <polygon id="Oval-Copy-102" points="28.1911434 93.9558327 31.3234926 90.8239716 28.1911434 87.6921105 25.0587941 90.8239716"></polygon>
                        <polygon id="Oval-Copy-101" points="40.7205404 93.9558327 43.8528897 90.8239716 40.7205404 87.6921105 37.5881911 90.8239716"></polygon>
                        <polygon id="Oval-Copy-100" points="53.2499375 93.9558327 56.3822867 90.8239716 53.2499375 87.6921105 50.1175882 90.8239716"></polygon>
                        <polygon id="Oval-Copy-99" points="65.7793345 93.9558327 68.9116838 90.8239716 65.7793345 87.6921105 62.6469852 90.8239716"></polygon>
                        <polygon id="Oval-Copy-98" points="78.3087315 93.9558327 81.4410808 90.8239716 78.3087315 87.6921105 75.1763823 90.8239716"></polygon>
                        <polygon id="Oval-Copy-97" points="90.8381286 93.9558327 93.9704779 90.8239716 90.8381286 87.6921105 87.7057793 90.8239716"></polygon>
                        <polygon id="Oval-Copy-96" points="103.367526 93.9558327 106.499875 90.8239716 103.367526 87.6921105 100.235176 90.8239716"></polygon>
                        <polygon id="Oval-Copy-95" points="115.896923 93.9558327 119.029272 90.8239716 115.896923 87.6921105 112.764573 90.8239716"></polygon>
                        <polygon id="Oval-Copy-94" points="128.42632 93.9558327 131.558669 90.8239716 128.42632 87.6921105 125.29397 90.8239716"></polygon>
                        <polygon id="Oval-Copy-93" points="140.955717 93.9558327 144.088066 90.8239716 140.955717 87.6921105 137.823368 90.8239716"></polygon>
                        <polygon id="Oval-Copy-92" points="153.485114 93.9558327 156.617463 90.8239716 153.485114 87.6921105 150.352765 90.8239716"></polygon>
                        <polygon id="Oval-Copy-91" points="166.014511 93.9558327 169.14686 90.8239716 166.014511 87.6921105 162.882162 90.8239716"></polygon>
                        <polygon id="Oval-Copy-90" points="178.543908 93.9558327 181.676257 90.8239716 178.543908 87.6921105 175.411559 90.8239716"></polygon>
                        <polygon id="Oval-Copy-89" points="191.073305 93.9558327 194.205654 90.8239716 191.073305 87.6921105 187.940956 90.8239716"></polygon>
                        <polygon id="Oval-Copy-88" points="203.602702 93.9558327 206.735051 90.8239716 203.602702 87.6921105 200.470353 90.8239716"></polygon>
                        <polygon id="Oval-Copy-87" points="216.132099 93.9558327 219.264448 90.8239716 216.132099 87.6921105 212.99975 90.8239716"></polygon>
                        <polygon id="Oval-Copy-86" points="228.661496 93.9558327 231.793845 90.8239716 228.661496 87.6921105 225.529147 90.8239716"></polygon>
                        <polygon id="Oval-Copy-85" points="241.190893 93.9558327 244.323242 90.8239716 241.190893 87.6921105 238.058544 90.8239716"></polygon>
                        <polygon id="Oval-Copy-84" points="253.72029 93.9558327 256.852639 90.8239716 253.72029 87.6921105 250.587941 90.8239716"></polygon>
                        <polygon id="Oval-Copy-313" points="15.6617463 18.7911665 18.7940956 15.6593055 15.6617463 12.5274444 12.529397 15.6593055"></polygon>
                        <polygon id="Oval-Copy-312" points="28.1911434 18.7911665 31.3234926 15.6593055 28.1911434 12.5274444 25.0587941 15.6593055"></polygon>
                        <polygon id="Oval-Copy-311" points="40.7205404 18.7911665 43.8528897 15.6593055 40.7205404 12.5274444 37.5881911 15.6593055"></polygon>
                        <polygon id="Oval-Copy-310" points="53.2499375 18.7911665 56.3822867 15.6593055 53.2499375 12.5274444 50.1175882 15.6593055"></polygon>
                        <polygon id="Oval-Copy-309" points="65.7793345 18.7911665 68.9116838 15.6593055 65.7793345 12.5274444 62.6469852 15.6593055"></polygon>
                        <polygon id="Oval-Copy-308" points="78.3087315 18.7911665 81.4410808 15.6593055 78.3087315 12.5274444 75.1763823 15.6593055"></polygon>
                        <polygon id="Oval-Copy-307" points="90.8381286 18.7911665 93.9704779 15.6593055 90.8381286 12.5274444 87.7057793 15.6593055"></polygon>
                        <polygon id="Oval-Copy-306" points="103.367526 18.7911665 106.499875 15.6593055 103.367526 12.5274444 100.235176 15.6593055"></polygon>
                        <polygon id="Oval-Copy-305" points="115.896923 18.7911665 119.029272 15.6593055 115.896923 12.5274444 112.764573 15.6593055"></polygon>
                        <polygon id="Oval-Copy-304" points="128.42632 18.7911665 131.558669 15.6593055 128.42632 12.5274444 125.29397 15.6593055"></polygon>
                        <polygon id="Oval-Copy-303" points="140.955717 18.7911665 144.088066 15.6593055 140.955717 12.5274444 137.823368 15.6593055"></polygon>
                        <polygon id="Oval-Copy-302" points="153.485114 18.7911665 156.617463 15.6593055 153.485114 12.5274444 150.352765 15.6593055"></polygon>
                        <polygon id="Oval-Copy-301" points="166.014511 18.7911665 169.14686 15.6593055 166.014511 12.5274444 162.882162 15.6593055"></polygon>
                        <polygon id="Oval-Copy-300" points="178.543908 18.7911665 181.676257 15.6593055 178.543908 12.5274444 175.411559 15.6593055"></polygon>
                        <polygon id="Oval-Copy-299" points="191.073305 18.7911665 194.205654 15.6593055 191.073305 12.5274444 187.940956 15.6593055"></polygon>
                        <polygon id="Oval-Copy-298" points="203.602702 18.7911665 206.735051 15.6593055 203.602702 12.5274444 200.470353 15.6593055"></polygon>
                        <polygon id="Oval-Copy-297" points="216.132099 18.7911665 219.264448 15.6593055 216.132099 12.5274444 212.99975 15.6593055"></polygon>
                        <polygon id="Oval-Copy-296" points="228.661496 18.7911665 231.793845 15.6593055 228.661496 12.5274444 225.529147 15.6593055"></polygon>
                        <polygon id="Oval-Copy-295" points="241.190893 18.7911665 244.323242 15.6593055 241.190893 12.5274444 238.058544 15.6593055"></polygon>
                        <polygon id="Oval-Copy-294" points="253.72029 18.7911665 256.852639 15.6593055 253.72029 12.5274444 250.587941 15.6593055"></polygon>
                        <polygon id="Oval-Copy-293" points="9.39704779 31.3186109 12.529397 28.1867498 9.39704779 25.0548887 6.26469852 28.1867498"></polygon>
                        <polygon id="Oval-Copy-292" points="21.9264448 31.3186109 25.0587941 28.1867498 21.9264448 25.0548887 18.7940956 28.1867498"></polygon>
                        <polygon id="Oval-Copy-291" points="34.4558419 31.3186109 37.5881911 28.1867498 34.4558419 25.0548887 31.3234926 28.1867498"></polygon>
                        <polygon id="Oval-Copy-290" points="46.9852389 31.3186109 50.1175882 28.1867498 46.9852389 25.0548887 43.8528897 28.1867498"></polygon>
                        <polygon id="Oval-Copy-289" points="59.514636 31.3186109 62.6469852 28.1867498 59.514636 25.0548887 56.3822867 28.1867498"></polygon>
                        <polygon id="Oval-Copy-288" points="72.044033 31.3186109 75.1763823 28.1867498 72.044033 25.0548887 68.9116838 28.1867498"></polygon>
                        <polygon id="Oval-Copy-287" points="84.5734301 31.3186109 87.7057793 28.1867498 84.5734301 25.0548887 81.4410808 28.1867498"></polygon>
                        <polygon id="Oval-Copy-286" points="97.1028271 31.3186109 100.235176 28.1867498 97.1028271 25.0548887 93.9704779 28.1867498"></polygon>
                        <polygon id="Oval-Copy-285" points="109.632224 31.3186109 112.764573 28.1867498 109.632224 25.0548887 106.499875 28.1867498"></polygon>
                        <polygon id="Oval-Copy-284" points="122.161621 31.3186109 125.29397 28.1867498 122.161621 25.0548887 119.029272 28.1867498"></polygon>
                        <polygon id="Oval-Copy-283" points="134.691018 31.3186109 137.823368 28.1867498 134.691018 25.0548887 131.558669 28.1867498"></polygon>
                        <polygon id="Oval-Copy-282" points="147.220415 31.3186109 150.352765 28.1867498 147.220415 25.0548887 144.088066 28.1867498"></polygon>
                        <polygon id="Oval-Copy-281" points="159.749812 31.3186109 162.882162 28.1867498 159.749812 25.0548887 156.617463 28.1867498"></polygon>
                        <polygon id="Oval-Copy-280" points="172.279209 31.3186109 175.411559 28.1867498 172.279209 25.0548887 169.14686 28.1867498"></polygon>
                        <polygon id="Oval-Copy-279" points="184.808606 31.3186109 187.940956 28.1867498 184.808606 25.0548887 181.676257 28.1867498"></polygon>
                        <polygon id="Oval-Copy-278" points="197.338004 31.3186109 200.470353 28.1867498 197.338004 25.0548887 194.205654 28.1867498"></polygon>
                        <polygon id="Oval-Copy-277" points="209.867401 31.3186109 212.99975 28.1867498 209.867401 25.0548887 206.735051 28.1867498"></polygon>
                        <polygon id="Oval-Copy-276" points="222.396798 31.3186109 225.529147 28.1867498 222.396798 25.0548887 219.264448 28.1867498"></polygon>
                        <polygon id="Oval-Copy-275" points="234.926195 31.3186109 238.058544 28.1867498 234.926195 25.0548887 231.793845 28.1867498"></polygon>
                        <polygon id="Oval-Copy-274" points="247.455592 31.3186109 250.587941 28.1867498 247.455592 25.0548887 244.323242 28.1867498"></polygon>
                        <polygon id="Oval-Copy-271" points="15.6617463 43.8460553 18.7940956 40.7141942 15.6617463 37.5823331 12.529397 40.7141942"></polygon>
                        <polygon id="Oval-Copy-270" points="28.1911434 43.8460553 31.3234926 40.7141942 28.1911434 37.5823331 25.0587941 40.7141942"></polygon>
                        <polygon id="Oval-Copy-269" points="40.7205404 43.8460553 43.8528897 40.7141942 40.7205404 37.5823331 37.5881911 40.7141942"></polygon>
                        <polygon id="Oval-Copy-268" points="53.2499375 43.8460553 56.3822867 40.7141942 53.2499375 37.5823331 50.1175882 40.7141942"></polygon>
                        <polygon id="Oval-Copy-267" points="65.7793345 43.8460553 68.9116838 40.7141942 65.7793345 37.5823331 62.6469852 40.7141942"></polygon>
                        <polygon id="Oval-Copy-266" points="78.3087315 43.8460553 81.4410808 40.7141942 78.3087315 37.5823331 75.1763823 40.7141942"></polygon>
                        <polygon id="Oval-Copy-265" points="90.8381286 43.8460553 93.9704779 40.7141942 90.8381286 37.5823331 87.7057793 40.7141942"></polygon>
                        <polygon id="Oval-Copy-264" points="103.367526 43.8460553 106.499875 40.7141942 103.367526 37.5823331 100.235176 40.7141942"></polygon>
                        <polygon id="Oval-Copy-263" points="115.896923 43.8460553 119.029272 40.7141942 115.896923 37.5823331 112.764573 40.7141942"></polygon>
                        <polygon id="Oval-Copy-262" points="128.42632 43.8460553 131.558669 40.7141942 128.42632 37.5823331 125.29397 40.7141942"></polygon>
                        <polygon id="Oval-Copy-261" points="140.955717 43.8460553 144.088066 40.7141942 140.955717 37.5823331 137.823368 40.7141942"></polygon>
                        <polygon id="Oval-Copy-260" points="153.485114 43.8460553 156.617463 40.7141942 153.485114 37.5823331 150.352765 40.7141942"></polygon>
                        <polygon id="Oval-Copy-259" points="166.014511 43.8460553 169.14686 40.7141942 166.014511 37.5823331 162.882162 40.7141942"></polygon>
                        <polygon id="Oval-Copy-258" points="178.543908 43.8460553 181.676257 40.7141942 178.543908 37.5823331 175.411559 40.7141942"></polygon>
                        <polygon id="Oval-Copy-257" points="191.073305 43.8460553 194.205654 40.7141942 191.073305 37.5823331 187.940956 40.7141942"></polygon>
                        <polygon id="Oval-Copy-256" points="203.602702 43.8460553 206.735051 40.7141942 203.602702 37.5823331 200.470353 40.7141942"></polygon>
                        <polygon id="Oval-Copy-255" points="216.132099 43.8460553 219.264448 40.7141942 216.132099 37.5823331 212.99975 40.7141942"></polygon>
                        <polygon id="Oval-Copy-254" points="228.661496 43.8460553 231.793845 40.7141942 228.661496 37.5823331 225.529147 40.7141942"></polygon>
                        <polygon id="Oval-Copy-253" points="241.190893 43.8460553 244.323242 40.7141942 241.190893 37.5823331 238.058544 40.7141942"></polygon>
                        <polygon id="Oval-Copy-252" points="253.72029 43.8460553 256.852639 40.7141942 253.72029 37.5823331 250.587941 40.7141942"></polygon>
                        <polygon id="Oval-Copy-251" points="9.39704779 56.3734996 12.529397 53.2416385 9.39704779 50.1097775 6.26469852 53.2416385"></polygon>
                        <polygon id="Oval-Copy-250" points="21.9264448 56.3734996 25.0587941 53.2416385 21.9264448 50.1097775 18.7940956 53.2416385"></polygon>
                        <polygon id="Oval-Copy-249" points="34.4558419 56.3734996 37.5881911 53.2416385 34.4558419 50.1097775 31.3234926 53.2416385"></polygon>
                        <polygon id="Oval-Copy-248" points="46.9852389 56.3734996 50.1175882 53.2416385 46.9852389 50.1097775 43.8528897 53.2416385"></polygon>
                        <polygon id="Oval-Copy-247" points="59.514636 56.3734996 62.6469852 53.2416385 59.514636 50.1097775 56.3822867 53.2416385"></polygon>
                        <polygon id="Oval-Copy-246" points="72.044033 56.3734996 75.1763823 53.2416385 72.044033 50.1097775 68.9116838 53.2416385"></polygon>
                        <polygon id="Oval-Copy-245" points="84.5734301 56.3734996 87.7057793 53.2416385 84.5734301 50.1097775 81.4410808 53.2416385"></polygon>
                        <polygon id="Oval-Copy-244" points="97.1028271 56.3734996 100.235176 53.2416385 97.1028271 50.1097775 93.9704779 53.2416385"></polygon>
                        <polygon id="Oval-Copy-243" points="109.632224 56.3734996 112.764573 53.2416385 109.632224 50.1097775 106.499875 53.2416385"></polygon>
                        <polygon id="Oval-Copy-242" points="122.161621 56.3734996 125.29397 53.2416385 122.161621 50.1097775 119.029272 53.2416385"></polygon>
                        <polygon id="Oval-Copy-241" points="134.691018 56.3734996 137.823368 53.2416385 134.691018 50.1097775 131.558669 53.2416385"></polygon>
                        <polygon id="Oval-Copy-240" points="147.220415 56.3734996 150.352765 53.2416385 147.220415 50.1097775 144.088066 53.2416385"></polygon>
                        <polygon id="Oval-Copy-239" points="159.749812 56.3734996 162.882162 53.2416385 159.749812 50.1097775 156.617463 53.2416385"></polygon>
                        <polygon id="Oval-Copy-238" points="172.279209 56.3734996 175.411559 53.2416385 172.279209 50.1097775 169.14686 53.2416385"></polygon>
                        <polygon id="Oval-Copy-237" points="184.808606 56.3734996 187.940956 53.2416385 184.808606 50.1097775 181.676257 53.2416385"></polygon>
                        <polygon id="Oval-Copy-236" points="197.338004 56.3734996 200.470353 53.2416385 197.338004 50.1097775 194.205654 53.2416385"></polygon>
                        <polygon id="Oval-Copy-235" points="209.867401 56.3734996 212.99975 53.2416385 209.867401 50.1097775 206.735051 53.2416385"></polygon>
                        <polygon id="Oval-Copy-234" points="222.396798 56.3734996 225.529147 53.2416385 222.396798 50.1097775 219.264448 53.2416385"></polygon>
                        <polygon id="Oval-Copy-233" points="234.926195 56.3734996 238.058544 53.2416385 234.926195 50.1097775 231.793845 53.2416385"></polygon>
                        <polygon id="Oval-Copy-232" points="247.455592 56.3734996 250.587941 53.2416385 247.455592 50.1097775 244.323242 53.2416385"></polygon>
                        <polygon id="Oval-Copy-229" points="15.6617463 68.900944 18.7940956 65.7690829 15.6617463 62.6372218 12.529397 65.7690829"></polygon>
                        <polygon id="Oval-Copy-228" points="28.1911434 68.900944 31.3234926 65.7690829 28.1911434 62.6372218 25.0587941 65.7690829"></polygon>
                        <polygon id="Oval-Copy-227" points="40.7205404 68.900944 43.8528897 65.7690829 40.7205404 62.6372218 37.5881911 65.7690829"></polygon>
                        <polygon id="Oval-Copy-226" points="53.2499375 68.900944 56.3822867 65.7690829 53.2499375 62.6372218 50.1175882 65.7690829"></polygon>
                        <polygon id="Oval-Copy-225" points="65.7793345 68.900944 68.9116838 65.7690829 65.7793345 62.6372218 62.6469852 65.7690829"></polygon>
                        <polygon id="Oval-Copy-224" points="78.3087315 68.900944 81.4410808 65.7690829 78.3087315 62.6372218 75.1763823 65.7690829"></polygon>
                        <polygon id="Oval-Copy-223" points="90.8381286 68.900944 93.9704779 65.7690829 90.8381286 62.6372218 87.7057793 65.7690829"></polygon>
                        <polygon id="Oval-Copy-222" points="103.367526 68.900944 106.499875 65.7690829 103.367526 62.6372218 100.235176 65.7690829"></polygon>
                        <polygon id="Oval-Copy-221" points="115.896923 68.900944 119.029272 65.7690829 115.896923 62.6372218 112.764573 65.7690829"></polygon>
                        <polygon id="Oval-Copy-220" points="128.42632 68.900944 131.558669 65.7690829 128.42632 62.6372218 125.29397 65.7690829"></polygon>
                        <polygon id="Oval-Copy-219" points="140.955717 68.900944 144.088066 65.7690829 140.955717 62.6372218 137.823368 65.7690829"></polygon>
                        <polygon id="Oval-Copy-218" points="153.485114 68.900944 156.617463 65.7690829 153.485114 62.6372218 150.352765 65.7690829"></polygon>
                        <polygon id="Oval-Copy-217" points="166.014511 68.900944 169.14686 65.7690829 166.014511 62.6372218 162.882162 65.7690829"></polygon>
                        <polygon id="Oval-Copy-216" points="178.543908 68.900944 181.676257 65.7690829 178.543908 62.6372218 175.411559 65.7690829"></polygon>
                        <polygon id="Oval-Copy-215" points="191.073305 68.900944 194.205654 65.7690829 191.073305 62.6372218 187.940956 65.7690829"></polygon>
                        <polygon id="Oval-Copy-214" points="203.602702 68.900944 206.735051 65.7690829 203.602702 62.6372218 200.470353 65.7690829"></polygon>
                        <polygon id="Oval-Copy-213" points="216.132099 68.900944 219.264448 65.7690829 216.132099 62.6372218 212.99975 65.7690829"></polygon>
                        <polygon id="Oval-Copy-212" points="228.661496 68.900944 231.793845 65.7690829 228.661496 62.6372218 225.529147 65.7690829"></polygon>
                        <polygon id="Oval-Copy-211" points="241.190893 68.900944 244.323242 65.7690829 241.190893 62.6372218 238.058544 65.7690829"></polygon>
                        <polygon id="Oval-Copy-210" points="253.72029 68.900944 256.852639 65.7690829 253.72029 62.6372218 250.587941 65.7690829"></polygon>
                        <polygon id="Oval-Copy-209" points="9.39704779 81.4283884 12.529397 78.2965273 9.39704779 75.1646662 6.26469852 78.2965273"></polygon>
                        <polygon id="Oval-Copy-208" points="21.9264448 81.4283884 25.0587941 78.2965273 21.9264448 75.1646662 18.7940956 78.2965273"></polygon>
                        <polygon id="Oval-Copy-207" points="34.4558419 81.4283884 37.5881911 78.2965273 34.4558419 75.1646662 31.3234926 78.2965273"></polygon>
                        <polygon id="Oval-Copy-206" points="46.9852389 81.4283884 50.1175882 78.2965273 46.9852389 75.1646662 43.8528897 78.2965273"></polygon>
                        <polygon id="Oval-Copy-205" points="59.514636 81.4283884 62.6469852 78.2965273 59.514636 75.1646662 56.3822867 78.2965273"></polygon>
                        <polygon id="Oval-Copy-204" points="72.044033 81.4283884 75.1763823 78.2965273 72.044033 75.1646662 68.9116838 78.2965273"></polygon>
                        <polygon id="Oval-Copy-203" points="84.5734301 81.4283884 87.7057793 78.2965273 84.5734301 75.1646662 81.4410808 78.2965273"></polygon>
                        <polygon id="Oval-Copy-202" points="97.1028271 81.4283884 100.235176 78.2965273 97.1028271 75.1646662 93.9704779 78.2965273"></polygon>
                        <polygon id="Oval-Copy-201" points="109.632224 81.4283884 112.764573 78.2965273 109.632224 75.1646662 106.499875 78.2965273"></polygon>
                        <polygon id="Oval-Copy-200" points="122.161621 81.4283884 125.29397 78.2965273 122.161621 75.1646662 119.029272 78.2965273"></polygon>
                        <polygon id="Oval-Copy-199" points="134.691018 81.4283884 137.823368 78.2965273 134.691018 75.1646662 131.558669 78.2965273"></polygon>
                        <polygon id="Oval-Copy-198" points="147.220415 81.4283884 150.352765 78.2965273 147.220415 75.1646662 144.088066 78.2965273"></polygon>
                        <polygon id="Oval-Copy-197" points="159.749812 81.4283884 162.882162 78.2965273 159.749812 75.1646662 156.617463 78.2965273"></polygon>
                        <polygon id="Oval-Copy-196" points="172.279209 81.4283884 175.411559 78.2965273 172.279209 75.1646662 169.14686 78.2965273"></polygon>
                        <polygon id="Oval-Copy-195" points="184.808606 81.4283884 187.940956 78.2965273 184.808606 75.1646662 181.676257 78.2965273"></polygon>
                        <polygon id="Oval-Copy-194" points="197.338004 81.4283884 200.470353 78.2965273 197.338004 75.1646662 194.205654 78.2965273"></polygon>
                        <polygon id="Oval-Copy-193" points="209.867401 81.4283884 212.99975 78.2965273 209.867401 75.1646662 206.735051 78.2965273"></polygon>
                        <polygon id="Oval-Copy-192" points="222.396798 81.4283884 225.529147 78.2965273 222.396798 75.1646662 219.264448 78.2965273"></polygon>
                        <polygon id="Oval-Copy-191" points="234.926195 81.4283884 238.058544 78.2965273 234.926195 75.1646662 231.793845 78.2965273"></polygon>
                        <polygon id="Oval-Copy-190" points="247.455592 81.4283884 250.587941 78.2965273 247.455592 75.1646662 244.323242 78.2965273"></polygon>
                        <polygon id="Oval-Copy-187" points="15.6617463 93.9558327 18.7940956 90.8239716 15.6617463 87.6921105 12.529397 90.8239716"></polygon>
                        <polygon id="Oval-Copy-186" points="28.1911434 93.9558327 31.3234926 90.8239716 28.1911434 87.6921105 25.0587941 90.8239716"></polygon>
                        <polygon id="Oval-Copy-185" points="40.7205404 93.9558327 43.8528897 90.8239716 40.7205404 87.6921105 37.5881911 90.8239716"></polygon>
                        <polygon id="Oval-Copy-184" points="53.2499375 93.9558327 56.3822867 90.8239716 53.2499375 87.6921105 50.1175882 90.8239716"></polygon>
                        <polygon id="Oval-Copy-183" points="65.7793345 93.9558327 68.9116838 90.8239716 65.7793345 87.6921105 62.6469852 90.8239716"></polygon>
                        <polygon id="Oval-Copy-182" points="78.3087315 93.9558327 81.4410808 90.8239716 78.3087315 87.6921105 75.1763823 90.8239716"></polygon>
                        <polygon id="Oval-Copy-181" points="90.8381286 93.9558327 93.9704779 90.8239716 90.8381286 87.6921105 87.7057793 90.8239716"></polygon>
                        <polygon id="Oval-Copy-180" points="103.367526 93.9558327 106.499875 90.8239716 103.367526 87.6921105 100.235176 90.8239716"></polygon>
                        <polygon id="Oval-Copy-179" points="115.896923 93.9558327 119.029272 90.8239716 115.896923 87.6921105 112.764573 90.8239716"></polygon>
                        <polygon id="Oval-Copy-178" points="128.42632 93.9558327 131.558669 90.8239716 128.42632 87.6921105 125.29397 90.8239716"></polygon>
                        <polygon id="Oval-Copy-177" points="140.955717 93.9558327 144.088066 90.8239716 140.955717 87.6921105 137.823368 90.8239716"></polygon>
                        <polygon id="Oval-Copy-176" points="153.485114 93.9558327 156.617463 90.8239716 153.485114 87.6921105 150.352765 90.8239716"></polygon>
                        <polygon id="Oval-Copy-175" points="166.014511 93.9558327 169.14686 90.8239716 166.014511 87.6921105 162.882162 90.8239716"></polygon>
                        <polygon id="Oval-Copy-174" points="178.543908 93.9558327 181.676257 90.8239716 178.543908 87.6921105 175.411559 90.8239716"></polygon>
                        <polygon id="Oval-Copy-173" points="191.073305 93.9558327 194.205654 90.8239716 191.073305 87.6921105 187.940956 90.8239716"></polygon>
                        <polygon id="Oval-Copy-172" points="203.602702 93.9558327 206.735051 90.8239716 203.602702 87.6921105 200.470353 90.8239716"></polygon>
                        <polygon id="Oval-Copy-171" points="216.132099 93.9558327 219.264448 90.8239716 216.132099 87.6921105 212.99975 90.8239716"></polygon>
                        <polygon id="Oval-Copy-170" points="228.661496 93.9558327 231.793845 90.8239716 228.661496 87.6921105 225.529147 90.8239716"></polygon>
                        <polygon id="Oval-Copy-169" points="241.190893 93.9558327 244.323242 90.8239716 241.190893 87.6921105 238.058544 90.8239716"></polygon>
                        <polygon id="Oval-Copy-168" points="253.72029 93.9558327 256.852639 90.8239716 253.72029 87.6921105 250.587941 90.8239716"></polygon>
                        <polygon id="Oval-Copy-503" points="9.39704779 106.483277 12.529397 103.351416 9.39704779 100.219555 6.26469852 103.351416"></polygon>
                        <polygon id="Oval-Copy-502" points="21.9264448 106.483277 25.0587941 103.351416 21.9264448 100.219555 18.7940956 103.351416"></polygon>
                        <polygon id="Oval-Copy-501" points="34.4558419 106.483277 37.5881911 103.351416 34.4558419 100.219555 31.3234926 103.351416"></polygon>
                        <polygon id="Oval-Copy-500" points="46.9852389 106.483277 50.1175882 103.351416 46.9852389 100.219555 43.8528897 103.351416"></polygon>
                        <polygon id="Oval-Copy-499" points="59.514636 106.483277 62.6469852 103.351416 59.514636 100.219555 56.3822867 103.351416"></polygon>
                        <polygon id="Oval-Copy-498" points="72.044033 106.483277 75.1763823 103.351416 72.044033 100.219555 68.9116838 103.351416"></polygon>
                        <polygon id="Oval-Copy-497" points="84.5734301 106.483277 87.7057793 103.351416 84.5734301 100.219555 81.4410808 103.351416"></polygon>
                        <polygon id="Oval-Copy-496" points="97.1028271 106.483277 100.235176 103.351416 97.1028271 100.219555 93.9704779 103.351416"></polygon>
                        <polygon id="Oval-Copy-495" points="109.632224 106.483277 112.764573 103.351416 109.632224 100.219555 106.499875 103.351416"></polygon>
                        <polygon id="Oval-Copy-494" points="122.161621 106.483277 125.29397 103.351416 122.161621 100.219555 119.029272 103.351416"></polygon>
                        <polygon id="Oval-Copy-493" points="134.691018 106.483277 137.823368 103.351416 134.691018 100.219555 131.558669 103.351416"></polygon>
                        <polygon id="Oval-Copy-492" points="147.220415 106.483277 150.352765 103.351416 147.220415 100.219555 144.088066 103.351416"></polygon>
                        <polygon id="Oval-Copy-491" points="159.749812 106.483277 162.882162 103.351416 159.749812 100.219555 156.617463 103.351416"></polygon>
                        <polygon id="Oval-Copy-490" points="172.279209 106.483277 175.411559 103.351416 172.279209 100.219555 169.14686 103.351416"></polygon>
                        <polygon id="Oval-Copy-489" points="184.808606 106.483277 187.940956 103.351416 184.808606 100.219555 181.676257 103.351416"></polygon>
                        <polygon id="Oval-Copy-488" points="197.338004 106.483277 200.470353 103.351416 197.338004 100.219555 194.205654 103.351416"></polygon>
                        <polygon id="Oval-Copy-487" points="209.867401 106.483277 212.99975 103.351416 209.867401 100.219555 206.735051 103.351416"></polygon>
                        <polygon id="Oval-Copy-486" points="222.396798 106.483277 225.529147 103.351416 222.396798 100.219555 219.264448 103.351416"></polygon>
                        <polygon id="Oval-Copy-485" points="234.926195 106.483277 238.058544 103.351416 234.926195 100.219555 231.793845 103.351416"></polygon>
                        <polygon id="Oval-Copy-484" points="247.455592 106.483277 250.587941 103.351416 247.455592 100.219555 244.323242 103.351416"></polygon>
                        <polygon id="Oval-Copy-481" points="15.6617463 119.010721 18.7940956 115.87886 15.6617463 112.746999 12.529397 115.87886"></polygon>
                        <polygon id="Oval-Copy-480" points="28.1911434 119.010721 31.3234926 115.87886 28.1911434 112.746999 25.0587941 115.87886"></polygon>
                        <polygon id="Oval-Copy-479" points="40.7205404 119.010721 43.8528897 115.87886 40.7205404 112.746999 37.5881911 115.87886"></polygon>
                        <polygon id="Oval-Copy-478" points="53.2499375 119.010721 56.3822867 115.87886 53.2499375 112.746999 50.1175882 115.87886"></polygon>
                        <polygon id="Oval-Copy-477" points="65.7793345 119.010721 68.9116838 115.87886 65.7793345 112.746999 62.6469852 115.87886"></polygon>
                        <polygon id="Oval-Copy-476" points="78.3087315 119.010721 81.4410808 115.87886 78.3087315 112.746999 75.1763823 115.87886"></polygon>
                        <polygon id="Oval-Copy-475" points="90.8381286 119.010721 93.9704779 115.87886 90.8381286 112.746999 87.7057793 115.87886"></polygon>
                        <polygon id="Oval-Copy-474" points="103.367526 119.010721 106.499875 115.87886 103.367526 112.746999 100.235176 115.87886"></polygon>
                        <polygon id="Oval-Copy-473" points="115.896923 119.010721 119.029272 115.87886 115.896923 112.746999 112.764573 115.87886"></polygon>
                        <polygon id="Oval-Copy-472" points="128.42632 119.010721 131.558669 115.87886 128.42632 112.746999 125.29397 115.87886"></polygon>
                        <polygon id="Oval-Copy-471" points="140.955717 119.010721 144.088066 115.87886 140.955717 112.746999 137.823368 115.87886"></polygon>
                        <polygon id="Oval-Copy-470" points="153.485114 119.010721 156.617463 115.87886 153.485114 112.746999 150.352765 115.87886"></polygon>
                        <polygon id="Oval-Copy-469" points="166.014511 119.010721 169.14686 115.87886 166.014511 112.746999 162.882162 115.87886"></polygon>
                        <polygon id="Oval-Copy-468" points="178.543908 119.010721 181.676257 115.87886 178.543908 112.746999 175.411559 115.87886"></polygon>
                        <polygon id="Oval-Copy-467" points="191.073305 119.010721 194.205654 115.87886 191.073305 112.746999 187.940956 115.87886"></polygon>
                        <polygon id="Oval-Copy-466" points="203.602702 119.010721 206.735051 115.87886 203.602702 112.746999 200.470353 115.87886"></polygon>
                        <polygon id="Oval-Copy-465" points="216.132099 119.010721 219.264448 115.87886 216.132099 112.746999 212.99975 115.87886"></polygon>
                        <polygon id="Oval-Copy-464" points="228.661496 119.010721 231.793845 115.87886 228.661496 112.746999 225.529147 115.87886"></polygon>
                        <polygon id="Oval-Copy-463" points="241.190893 119.010721 244.323242 115.87886 241.190893 112.746999 238.058544 115.87886"></polygon>
                        <polygon id="Oval-Copy-462" points="253.72029 119.010721 256.852639 115.87886 253.72029 112.746999 250.587941 115.87886"></polygon>
                        <polygon id="Oval-Copy-461" points="9.39704779 131.538166 12.529397 128.406305 9.39704779 125.274444 6.26469852 128.406305"></polygon>
                        <polygon id="Oval-Copy-460" points="21.9264448 131.538166 25.0587941 128.406305 21.9264448 125.274444 18.7940956 128.406305"></polygon>
                        <polygon id="Oval-Copy-459" points="34.4558419 131.538166 37.5881911 128.406305 34.4558419 125.274444 31.3234926 128.406305"></polygon>
                        <polygon id="Oval-Copy-458" points="46.9852389 131.538166 50.1175882 128.406305 46.9852389 125.274444 43.8528897 128.406305"></polygon>
                        <polygon id="Oval-Copy-457" points="59.514636 131.538166 62.6469852 128.406305 59.514636 125.274444 56.3822867 128.406305"></polygon>
                        <polygon id="Oval-Copy-456" points="72.044033 131.538166 75.1763823 128.406305 72.044033 125.274444 68.9116838 128.406305"></polygon>
                        <polygon id="Oval-Copy-455" points="84.5734301 131.538166 87.7057793 128.406305 84.5734301 125.274444 81.4410808 128.406305"></polygon>
                        <polygon id="Oval-Copy-454" points="97.1028271 131.538166 100.235176 128.406305 97.1028271 125.274444 93.9704779 128.406305"></polygon>
                        <polygon id="Oval-Copy-453" points="109.632224 131.538166 112.764573 128.406305 109.632224 125.274444 106.499875 128.406305"></polygon>
                        <polygon id="Oval-Copy-452" points="122.161621 131.538166 125.29397 128.406305 122.161621 125.274444 119.029272 128.406305"></polygon>
                        <polygon id="Oval-Copy-451" points="134.691018 131.538166 137.823368 128.406305 134.691018 125.274444 131.558669 128.406305"></polygon>
                        <polygon id="Oval-Copy-450" points="147.220415 131.538166 150.352765 128.406305 147.220415 125.274444 144.088066 128.406305"></polygon>
                        <polygon id="Oval-Copy-449" points="159.749812 131.538166 162.882162 128.406305 159.749812 125.274444 156.617463 128.406305"></polygon>
                        <polygon id="Oval-Copy-448" points="172.279209 131.538166 175.411559 128.406305 172.279209 125.274444 169.14686 128.406305"></polygon>
                        <polygon id="Oval-Copy-447" points="184.808606 131.538166 187.940956 128.406305 184.808606 125.274444 181.676257 128.406305"></polygon>
                        <polygon id="Oval-Copy-446" points="197.338004 131.538166 200.470353 128.406305 197.338004 125.274444 194.205654 128.406305"></polygon>
                        <polygon id="Oval-Copy-445" points="209.867401 131.538166 212.99975 128.406305 209.867401 125.274444 206.735051 128.406305"></polygon>
                        <polygon id="Oval-Copy-444" points="222.396798 131.538166 225.529147 128.406305 222.396798 125.274444 219.264448 128.406305"></polygon>
                        <polygon id="Oval-Copy-443" points="234.926195 131.538166 238.058544 128.406305 234.926195 125.274444 231.793845 128.406305"></polygon>
                        <polygon id="Oval-Copy-442" points="247.455592 131.538166 250.587941 128.406305 247.455592 125.274444 244.323242 128.406305"></polygon>
                        <polygon id="Oval-Copy-439" points="15.6617463 144.06561 18.7940956 140.933749 15.6617463 137.801888 12.529397 140.933749"></polygon>
                        <polygon id="Oval-Copy-438" points="28.1911434 144.06561 31.3234926 140.933749 28.1911434 137.801888 25.0587941 140.933749"></polygon>
                        <polygon id="Oval-Copy-437" points="40.7205404 144.06561 43.8528897 140.933749 40.7205404 137.801888 37.5881911 140.933749"></polygon>
                        <polygon id="Oval-Copy-436" points="53.2499375 144.06561 56.3822867 140.933749 53.2499375 137.801888 50.1175882 140.933749"></polygon>
                        <polygon id="Oval-Copy-435" points="65.7793345 144.06561 68.9116838 140.933749 65.7793345 137.801888 62.6469852 140.933749"></polygon>
                        <polygon id="Oval-Copy-434" points="78.3087315 144.06561 81.4410808 140.933749 78.3087315 137.801888 75.1763823 140.933749"></polygon>
                        <polygon id="Oval-Copy-433" points="90.8381286 144.06561 93.9704779 140.933749 90.8381286 137.801888 87.7057793 140.933749"></polygon>
                        <polygon id="Oval-Copy-432" points="103.367526 144.06561 106.499875 140.933749 103.367526 137.801888 100.235176 140.933749"></polygon>
                        <polygon id="Oval-Copy-431" points="115.896923 144.06561 119.029272 140.933749 115.896923 137.801888 112.764573 140.933749"></polygon>
                        <polygon id="Oval-Copy-430" points="128.42632 144.06561 131.558669 140.933749 128.42632 137.801888 125.29397 140.933749"></polygon>
                        <polygon id="Oval-Copy-429" points="140.955717 144.06561 144.088066 140.933749 140.955717 137.801888 137.823368 140.933749"></polygon>
                        <polygon id="Oval-Copy-428" points="153.485114 144.06561 156.617463 140.933749 153.485114 137.801888 150.352765 140.933749"></polygon>
                        <polygon id="Oval-Copy-427" points="166.014511 144.06561 169.14686 140.933749 166.014511 137.801888 162.882162 140.933749"></polygon>
                        <polygon id="Oval-Copy-426" points="178.543908 144.06561 181.676257 140.933749 178.543908 137.801888 175.411559 140.933749"></polygon>
                        <polygon id="Oval-Copy-425" points="191.073305 144.06561 194.205654 140.933749 191.073305 137.801888 187.940956 140.933749"></polygon>
                        <polygon id="Oval-Copy-424" points="203.602702 144.06561 206.735051 140.933749 203.602702 137.801888 200.470353 140.933749"></polygon>
                        <polygon id="Oval-Copy-423" points="216.132099 144.06561 219.264448 140.933749 216.132099 137.801888 212.99975 140.933749"></polygon>
                        <polygon id="Oval-Copy-422" points="228.661496 144.06561 231.793845 140.933749 228.661496 137.801888 225.529147 140.933749"></polygon>
                        <polygon id="Oval-Copy-421" points="241.190893 144.06561 244.323242 140.933749 241.190893 137.801888 238.058544 140.933749"></polygon>
                        <polygon id="Oval-Copy-420" points="253.72029 144.06561 256.852639 140.933749 253.72029 137.801888 250.587941 140.933749"></polygon>
                        <polygon id="Oval-Copy-419" points="9.39704779 156.593055 12.529397 153.461193 9.39704779 150.329332 6.26469852 153.461193"></polygon>
                        <polygon id="Oval-Copy-418" points="21.9264448 156.593055 25.0587941 153.461193 21.9264448 150.329332 18.7940956 153.461193"></polygon>
                        <polygon id="Oval-Copy-417" points="34.4558419 156.593055 37.5881911 153.461193 34.4558419 150.329332 31.3234926 153.461193"></polygon>
                        <polygon id="Oval-Copy-416" points="46.9852389 156.593055 50.1175882 153.461193 46.9852389 150.329332 43.8528897 153.461193"></polygon>
                        <polygon id="Oval-Copy-415" points="59.514636 156.593055 62.6469852 153.461193 59.514636 150.329332 56.3822867 153.461193"></polygon>
                        <polygon id="Oval-Copy-414" points="72.044033 156.593055 75.1763823 153.461193 72.044033 150.329332 68.9116838 153.461193"></polygon>
                        <polygon id="Oval-Copy-413" points="84.5734301 156.593055 87.7057793 153.461193 84.5734301 150.329332 81.4410808 153.461193"></polygon>
                        <polygon id="Oval-Copy-412" points="97.1028271 156.593055 100.235176 153.461193 97.1028271 150.329332 93.9704779 153.461193"></polygon>
                        <polygon id="Oval-Copy-411" points="109.632224 156.593055 112.764573 153.461193 109.632224 150.329332 106.499875 153.461193"></polygon>
                        <polygon id="Oval-Copy-410" points="122.161621 156.593055 125.29397 153.461193 122.161621 150.329332 119.029272 153.461193"></polygon>
                        <polygon id="Oval-Copy-409" points="134.691018 156.593055 137.823368 153.461193 134.691018 150.329332 131.558669 153.461193"></polygon>
                        <polygon id="Oval-Copy-408" points="147.220415 156.593055 150.352765 153.461193 147.220415 150.329332 144.088066 153.461193"></polygon>
                        <polygon id="Oval-Copy-407" points="159.749812 156.593055 162.882162 153.461193 159.749812 150.329332 156.617463 153.461193"></polygon>
                        <polygon id="Oval-Copy-406" points="172.279209 156.593055 175.411559 153.461193 172.279209 150.329332 169.14686 153.461193"></polygon>
                        <polygon id="Oval-Copy-405" points="184.808606 156.593055 187.940956 153.461193 184.808606 150.329332 181.676257 153.461193"></polygon>
                        <polygon id="Oval-Copy-404" points="197.338004 156.593055 200.470353 153.461193 197.338004 150.329332 194.205654 153.461193"></polygon>
                        <polygon id="Oval-Copy-403" points="209.867401 156.593055 212.99975 153.461193 209.867401 150.329332 206.735051 153.461193"></polygon>
                        <polygon id="Oval-Copy-402" points="222.396798 156.593055 225.529147 153.461193 222.396798 150.329332 219.264448 153.461193"></polygon>
                        <polygon id="Oval-Copy-401" points="234.926195 156.593055 238.058544 153.461193 234.926195 150.329332 231.793845 153.461193"></polygon>
                        <polygon id="Oval-Copy-400" points="247.455592 156.593055 250.587941 153.461193 247.455592 150.329332 244.323242 153.461193"></polygon>
                        <polygon id="Oval-Copy-397" points="15.6617463 169.120499 18.7940956 165.988638 15.6617463 162.856777 12.529397 165.988638"></polygon>
                        <polygon id="Oval-Copy-396" points="28.1911434 169.120499 31.3234926 165.988638 28.1911434 162.856777 25.0587941 165.988638"></polygon>
                        <polygon id="Oval-Copy-395" points="40.7205404 169.120499 43.8528897 165.988638 40.7205404 162.856777 37.5881911 165.988638"></polygon>
                        <polygon id="Oval-Copy-394" points="53.2499375 169.120499 56.3822867 165.988638 53.2499375 162.856777 50.1175882 165.988638"></polygon>
                        <polygon id="Oval-Copy-393" points="65.7793345 169.120499 68.9116838 165.988638 65.7793345 162.856777 62.6469852 165.988638"></polygon>
                        <polygon id="Oval-Copy-392" points="78.3087315 169.120499 81.4410808 165.988638 78.3087315 162.856777 75.1763823 165.988638"></polygon>
                        <polygon id="Oval-Copy-391" points="90.8381286 169.120499 93.9704779 165.988638 90.8381286 162.856777 87.7057793 165.988638"></polygon>
                        <polygon id="Oval-Copy-390" points="103.367526 169.120499 106.499875 165.988638 103.367526 162.856777 100.235176 165.988638"></polygon>
                        <polygon id="Oval-Copy-389" points="115.896923 169.120499 119.029272 165.988638 115.896923 162.856777 112.764573 165.988638"></polygon>
                        <polygon id="Oval-Copy-388" points="128.42632 169.120499 131.558669 165.988638 128.42632 162.856777 125.29397 165.988638"></polygon>
                        <polygon id="Oval-Copy-387" points="140.955717 169.120499 144.088066 165.988638 140.955717 162.856777 137.823368 165.988638"></polygon>
                        <polygon id="Oval-Copy-386" points="153.485114 169.120499 156.617463 165.988638 153.485114 162.856777 150.352765 165.988638"></polygon>
                        <polygon id="Oval-Copy-385" points="166.014511 169.120499 169.14686 165.988638 166.014511 162.856777 162.882162 165.988638"></polygon>
                        <polygon id="Oval-Copy-384" points="178.543908 169.120499 181.676257 165.988638 178.543908 162.856777 175.411559 165.988638"></polygon>
                        <polygon id="Oval-Copy-383" points="191.073305 169.120499 194.205654 165.988638 191.073305 162.856777 187.940956 165.988638"></polygon>
                        <polygon id="Oval-Copy-382" points="203.602702 169.120499 206.735051 165.988638 203.602702 162.856777 200.470353 165.988638"></polygon>
                        <polygon id="Oval-Copy-381" points="216.132099 169.120499 219.264448 165.988638 216.132099 162.856777 212.99975 165.988638"></polygon>
                        <polygon id="Oval-Copy-380" points="228.661496 169.120499 231.793845 165.988638 228.661496 162.856777 225.529147 165.988638"></polygon>
                        <polygon id="Oval-Copy-379" points="241.190893 169.120499 244.323242 165.988638 241.190893 162.856777 238.058544 165.988638"></polygon>
                        <polygon id="Oval-Copy-378" points="253.72029 169.120499 256.852639 165.988638 253.72029 162.856777 250.587941 165.988638"></polygon>
                        <polygon id="Oval-Copy-377" points="9.39704779 181.647943 12.529397 178.516082 9.39704779 175.384221 6.26469852 178.516082"></polygon>
                        <polygon id="Oval-Copy-376" points="21.9264448 181.647943 25.0587941 178.516082 21.9264448 175.384221 18.7940956 178.516082"></polygon>
                        <polygon id="Oval-Copy-375" points="34.4558419 181.647943 37.5881911 178.516082 34.4558419 175.384221 31.3234926 178.516082"></polygon>
                        <polygon id="Oval-Copy-374" points="46.9852389 181.647943 50.1175882 178.516082 46.9852389 175.384221 43.8528897 178.516082"></polygon>
                        <polygon id="Oval-Copy-373" points="59.514636 181.647943 62.6469852 178.516082 59.514636 175.384221 56.3822867 178.516082"></polygon>
                        <polygon id="Oval-Copy-372" points="72.044033 181.647943 75.1763823 178.516082 72.044033 175.384221 68.9116838 178.516082"></polygon>
                        <polygon id="Oval-Copy-371" points="84.5734301 181.647943 87.7057793 178.516082 84.5734301 175.384221 81.4410808 178.516082"></polygon>
                        <polygon id="Oval-Copy-370" points="97.1028271 181.647943 100.235176 178.516082 97.1028271 175.384221 93.9704779 178.516082"></polygon>
                        <polygon id="Oval-Copy-369" points="109.632224 181.647943 112.764573 178.516082 109.632224 175.384221 106.499875 178.516082"></polygon>
                        <polygon id="Oval-Copy-368" points="122.161621 181.647943 125.29397 178.516082 122.161621 175.384221 119.029272 178.516082"></polygon>
                        <polygon id="Oval-Copy-367" points="134.691018 181.647943 137.823368 178.516082 134.691018 175.384221 131.558669 178.516082"></polygon>
                        <polygon id="Oval-Copy-366" points="147.220415 181.647943 150.352765 178.516082 147.220415 175.384221 144.088066 178.516082"></polygon>
                        <polygon id="Oval-Copy-365" points="159.749812 181.647943 162.882162 178.516082 159.749812 175.384221 156.617463 178.516082"></polygon>
                        <polygon id="Oval-Copy-364" points="172.279209 181.647943 175.411559 178.516082 172.279209 175.384221 169.14686 178.516082"></polygon>
                        <polygon id="Oval-Copy-363" points="184.808606 181.647943 187.940956 178.516082 184.808606 175.384221 181.676257 178.516082"></polygon>
                        <polygon id="Oval-Copy-362" points="197.338004 181.647943 200.470353 178.516082 197.338004 175.384221 194.205654 178.516082"></polygon>
                        <polygon id="Oval-Copy-361" points="209.867401 181.647943 212.99975 178.516082 209.867401 175.384221 206.735051 178.516082"></polygon>
                        <polygon id="Oval-Copy-360" points="222.396798 181.647943 225.529147 178.516082 222.396798 175.384221 219.264448 178.516082"></polygon>
                        <polygon id="Oval-Copy-359" points="234.926195 181.647943 238.058544 178.516082 234.926195 175.384221 231.793845 178.516082"></polygon>
                        <polygon id="Oval-Copy-358" points="247.455592 181.647943 250.587941 178.516082 247.455592 175.384221 244.323242 178.516082"></polygon>
                        <polygon id="Oval-Copy-355" points="15.6617463 194.175388 18.7940956 191.043527 15.6617463 187.911665 12.529397 191.043527"></polygon>
                        <polygon id="Oval-Copy-354" points="28.1911434 194.175388 31.3234926 191.043527 28.1911434 187.911665 25.0587941 191.043527"></polygon>
                        <polygon id="Oval-Copy-353" points="40.7205404 194.175388 43.8528897 191.043527 40.7205404 187.911665 37.5881911 191.043527"></polygon>
                        <polygon id="Oval-Copy-352" points="53.2499375 194.175388 56.3822867 191.043527 53.2499375 187.911665 50.1175882 191.043527"></polygon>
                        <polygon id="Oval-Copy-351" points="65.7793345 194.175388 68.9116838 191.043527 65.7793345 187.911665 62.6469852 191.043527"></polygon>
                        <polygon id="Oval-Copy-350" points="78.3087315 194.175388 81.4410808 191.043527 78.3087315 187.911665 75.1763823 191.043527"></polygon>
                        <polygon id="Oval-Copy-349" points="90.8381286 194.175388 93.9704779 191.043527 90.8381286 187.911665 87.7057793 191.043527"></polygon>
                        <polygon id="Oval-Copy-348" points="103.367526 194.175388 106.499875 191.043527 103.367526 187.911665 100.235176 191.043527"></polygon>
                        <polygon id="Oval-Copy-347" points="115.896923 194.175388 119.029272 191.043527 115.896923 187.911665 112.764573 191.043527"></polygon>
                        <polygon id="Oval-Copy-346" points="128.42632 194.175388 131.558669 191.043527 128.42632 187.911665 125.29397 191.043527"></polygon>
                        <polygon id="Oval-Copy-345" points="140.955717 194.175388 144.088066 191.043527 140.955717 187.911665 137.823368 191.043527"></polygon>
                        <polygon id="Oval-Copy-344" points="153.485114 194.175388 156.617463 191.043527 153.485114 187.911665 150.352765 191.043527"></polygon>
                        <polygon id="Oval-Copy-343" points="166.014511 194.175388 169.14686 191.043527 166.014511 187.911665 162.882162 191.043527"></polygon>
                        <polygon id="Oval-Copy-342" points="178.543908 194.175388 181.676257 191.043527 178.543908 187.911665 175.411559 191.043527"></polygon>
                        <polygon id="Oval-Copy-341" points="191.073305 194.175388 194.205654 191.043527 191.073305 187.911665 187.940956 191.043527"></polygon>
                        <polygon id="Oval-Copy-340" points="203.602702 194.175388 206.735051 191.043527 203.602702 187.911665 200.470353 191.043527"></polygon>
                        <polygon id="Oval-Copy-339" points="216.132099 194.175388 219.264448 191.043527 216.132099 187.911665 212.99975 191.043527"></polygon>
                        <polygon id="Oval-Copy-338" points="228.661496 194.175388 231.793845 191.043527 228.661496 187.911665 225.529147 191.043527"></polygon>
                        <polygon id="Oval-Copy-337" points="241.190893 194.175388 244.323242 191.043527 241.190893 187.911665 238.058544 191.043527"></polygon>
                        <polygon id="Oval-Copy-336" points="253.72029 194.175388 256.852639 191.043527 253.72029 187.911665 250.587941 191.043527"></polygon>
                        <polygon id="Oval-Copy-671" points="9.39704779 206.702832 12.529397 203.570971 9.39704779 200.43911 6.26469852 203.570971"></polygon>
                        <polygon id="Oval-Copy-670" points="21.9264448 206.702832 25.0587941 203.570971 21.9264448 200.43911 18.7940956 203.570971"></polygon>
                        <polygon id="Oval-Copy-669" points="34.4558419 206.702832 37.5881911 203.570971 34.4558419 200.43911 31.3234926 203.570971"></polygon>
                        <polygon id="Oval-Copy-668" points="46.9852389 206.702832 50.1175882 203.570971 46.9852389 200.43911 43.8528897 203.570971"></polygon>
                        <polygon id="Oval-Copy-667" points="59.514636 206.702832 62.6469852 203.570971 59.514636 200.43911 56.3822867 203.570971"></polygon>
                        <polygon id="Oval-Copy-666" points="72.044033 206.702832 75.1763823 203.570971 72.044033 200.43911 68.9116838 203.570971"></polygon>
                        <polygon id="Oval-Copy-665" points="84.5734301 206.702832 87.7057793 203.570971 84.5734301 200.43911 81.4410808 203.570971"></polygon>
                        <polygon id="Oval-Copy-664" points="97.1028271 206.702832 100.235176 203.570971 97.1028271 200.43911 93.9704779 203.570971"></polygon>
                        <polygon id="Oval-Copy-663" points="109.632224 206.702832 112.764573 203.570971 109.632224 200.43911 106.499875 203.570971"></polygon>
                        <polygon id="Oval-Copy-662" points="122.161621 206.702832 125.29397 203.570971 122.161621 200.43911 119.029272 203.570971"></polygon>
                        <polygon id="Oval-Copy-661" points="134.691018 206.702832 137.823368 203.570971 134.691018 200.43911 131.558669 203.570971"></polygon>
                        <polygon id="Oval-Copy-660" points="147.220415 206.702832 150.352765 203.570971 147.220415 200.43911 144.088066 203.570971"></polygon>
                        <polygon id="Oval-Copy-659" points="159.749812 206.702832 162.882162 203.570971 159.749812 200.43911 156.617463 203.570971"></polygon>
                        <polygon id="Oval-Copy-658" points="172.279209 206.702832 175.411559 203.570971 172.279209 200.43911 169.14686 203.570971"></polygon>
                        <polygon id="Oval-Copy-657" points="184.808606 206.702832 187.940956 203.570971 184.808606 200.43911 181.676257 203.570971"></polygon>
                        <polygon id="Oval-Copy-656" points="197.338004 206.702832 200.470353 203.570971 197.338004 200.43911 194.205654 203.570971"></polygon>
                        <polygon id="Oval-Copy-655" points="209.867401 206.702832 212.99975 203.570971 209.867401 200.43911 206.735051 203.570971"></polygon>
                        <polygon id="Oval-Copy-654" points="222.396798 206.702832 225.529147 203.570971 222.396798 200.43911 219.264448 203.570971"></polygon>
                        <polygon id="Oval-Copy-653" points="234.926195 206.702832 238.058544 203.570971 234.926195 200.43911 231.793845 203.570971"></polygon>
                        <polygon id="Oval-Copy-652" points="247.455592 206.702832 250.587941 203.570971 247.455592 200.43911 244.323242 203.570971"></polygon>
                        <polygon id="Oval-Copy-649" points="15.6617463 219.230276 18.7940956 216.098415 15.6617463 212.966554 12.529397 216.098415"></polygon>
                        <polygon id="Oval-Copy-648" points="28.1911434 219.230276 31.3234926 216.098415 28.1911434 212.966554 25.0587941 216.098415"></polygon>
                        <polygon id="Oval-Copy-647" points="40.7205404 219.230276 43.8528897 216.098415 40.7205404 212.966554 37.5881911 216.098415"></polygon>
                        <polygon id="Oval-Copy-646" points="53.2499375 219.230276 56.3822867 216.098415 53.2499375 212.966554 50.1175882 216.098415"></polygon>
                        <polygon id="Oval-Copy-645" points="65.7793345 219.230276 68.9116838 216.098415 65.7793345 212.966554 62.6469852 216.098415"></polygon>
                        <polygon id="Oval-Copy-644" points="78.3087315 219.230276 81.4410808 216.098415 78.3087315 212.966554 75.1763823 216.098415"></polygon>
                        <polygon id="Oval-Copy-643" points="90.8381286 219.230276 93.9704779 216.098415 90.8381286 212.966554 87.7057793 216.098415"></polygon>
                        <polygon id="Oval-Copy-642" points="103.367526 219.230276 106.499875 216.098415 103.367526 212.966554 100.235176 216.098415"></polygon>
                        <polygon id="Oval-Copy-641" points="115.896923 219.230276 119.029272 216.098415 115.896923 212.966554 112.764573 216.098415"></polygon>
                        <polygon id="Oval-Copy-640" points="128.42632 219.230276 131.558669 216.098415 128.42632 212.966554 125.29397 216.098415"></polygon>
                        <polygon id="Oval-Copy-639" points="140.955717 219.230276 144.088066 216.098415 140.955717 212.966554 137.823368 216.098415"></polygon>
                        <polygon id="Oval-Copy-638" points="153.485114 219.230276 156.617463 216.098415 153.485114 212.966554 150.352765 216.098415"></polygon>
                        <polygon id="Oval-Copy-637" points="166.014511 219.230276 169.14686 216.098415 166.014511 212.966554 162.882162 216.098415"></polygon>
                        <polygon id="Oval-Copy-636" points="178.543908 219.230276 181.676257 216.098415 178.543908 212.966554 175.411559 216.098415"></polygon>
                        <polygon id="Oval-Copy-635" points="191.073305 219.230276 194.205654 216.098415 191.073305 212.966554 187.940956 216.098415"></polygon>
                        <polygon id="Oval-Copy-634" points="203.602702 219.230276 206.735051 216.098415 203.602702 212.966554 200.470353 216.098415"></polygon>
                        <polygon id="Oval-Copy-633" points="216.132099 219.230276 219.264448 216.098415 216.132099 212.966554 212.99975 216.098415"></polygon>
                        <polygon id="Oval-Copy-632" points="228.661496 219.230276 231.793845 216.098415 228.661496 212.966554 225.529147 216.098415"></polygon>
                        <polygon id="Oval-Copy-631" points="241.190893 219.230276 244.323242 216.098415 241.190893 212.966554 238.058544 216.098415"></polygon>
                        <polygon id="Oval-Copy-630" points="253.72029 219.230276 256.852639 216.098415 253.72029 212.966554 250.587941 216.098415"></polygon>
                        <polygon id="Oval-Copy-629" points="9.39704779 231.757721 12.529397 228.62586 9.39704779 225.493999 6.26469852 228.62586"></polygon>
                        <polygon id="Oval-Copy-628" points="21.9264448 231.757721 25.0587941 228.62586 21.9264448 225.493999 18.7940956 228.62586"></polygon>
                        <polygon id="Oval-Copy-627" points="34.4558419 231.757721 37.5881911 228.62586 34.4558419 225.493999 31.3234926 228.62586"></polygon>
                        <polygon id="Oval-Copy-626" points="46.9852389 231.757721 50.1175882 228.62586 46.9852389 225.493999 43.8528897 228.62586"></polygon>
                        <polygon id="Oval-Copy-625" points="59.514636 231.757721 62.6469852 228.62586 59.514636 225.493999 56.3822867 228.62586"></polygon>
                        <polygon id="Oval-Copy-624" points="72.044033 231.757721 75.1763823 228.62586 72.044033 225.493999 68.9116838 228.62586"></polygon>
                        <polygon id="Oval-Copy-623" points="84.5734301 231.757721 87.7057793 228.62586 84.5734301 225.493999 81.4410808 228.62586"></polygon>
                        <polygon id="Oval-Copy-622" points="97.1028271 231.757721 100.235176 228.62586 97.1028271 225.493999 93.9704779 228.62586"></polygon>
                        <polygon id="Oval-Copy-621" points="109.632224 231.757721 112.764573 228.62586 109.632224 225.493999 106.499875 228.62586"></polygon>
                        <polygon id="Oval-Copy-620" points="122.161621 231.757721 125.29397 228.62586 122.161621 225.493999 119.029272 228.62586"></polygon>
                        <polygon id="Oval-Copy-619" points="134.691018 231.757721 137.823368 228.62586 134.691018 225.493999 131.558669 228.62586"></polygon>
                        <polygon id="Oval-Copy-618" points="147.220415 231.757721 150.352765 228.62586 147.220415 225.493999 144.088066 228.62586"></polygon>
                        <polygon id="Oval-Copy-617" points="159.749812 231.757721 162.882162 228.62586 159.749812 225.493999 156.617463 228.62586"></polygon>
                        <polygon id="Oval-Copy-616" points="172.279209 231.757721 175.411559 228.62586 172.279209 225.493999 169.14686 228.62586"></polygon>
                        <polygon id="Oval-Copy-615" points="184.808606 231.757721 187.940956 228.62586 184.808606 225.493999 181.676257 228.62586"></polygon>
                        <polygon id="Oval-Copy-614" points="197.338004 231.757721 200.470353 228.62586 197.338004 225.493999 194.205654 228.62586"></polygon>
                        <polygon id="Oval-Copy-613" points="209.867401 231.757721 212.99975 228.62586 209.867401 225.493999 206.735051 228.62586"></polygon>
                        <polygon id="Oval-Copy-612" points="222.396798 231.757721 225.529147 228.62586 222.396798 225.493999 219.264448 228.62586"></polygon>
                        <polygon id="Oval-Copy-611" points="234.926195 231.757721 238.058544 228.62586 234.926195 225.493999 231.793845 228.62586"></polygon>
                        <polygon id="Oval-Copy-610" points="247.455592 231.757721 250.587941 228.62586 247.455592 225.493999 244.323242 228.62586"></polygon>
                        <polygon id="Oval-Copy-607" points="15.6617463 244.285165 18.7940956 241.153304 15.6617463 238.021443 12.529397 241.153304"></polygon>
                        <polygon id="Oval-Copy-606" points="28.1911434 244.285165 31.3234926 241.153304 28.1911434 238.021443 25.0587941 241.153304"></polygon>
                        <polygon id="Oval-Copy-605" points="40.7205404 244.285165 43.8528897 241.153304 40.7205404 238.021443 37.5881911 241.153304"></polygon>
                        <polygon id="Oval-Copy-604" points="53.2499375 244.285165 56.3822867 241.153304 53.2499375 238.021443 50.1175882 241.153304"></polygon>
                        <polygon id="Oval-Copy-603" points="65.7793345 244.285165 68.9116838 241.153304 65.7793345 238.021443 62.6469852 241.153304"></polygon>
                        <polygon id="Oval-Copy-602" points="78.3087315 244.285165 81.4410808 241.153304 78.3087315 238.021443 75.1763823 241.153304"></polygon>
                        <polygon id="Oval-Copy-601" points="90.8381286 244.285165 93.9704779 241.153304 90.8381286 238.021443 87.7057793 241.153304"></polygon>
                        <polygon id="Oval-Copy-600" points="103.367526 244.285165 106.499875 241.153304 103.367526 238.021443 100.235176 241.153304"></polygon>
                        <polygon id="Oval-Copy-599" points="115.896923 244.285165 119.029272 241.153304 115.896923 238.021443 112.764573 241.153304"></polygon>
                        <polygon id="Oval-Copy-598" points="128.42632 244.285165 131.558669 241.153304 128.42632 238.021443 125.29397 241.153304"></polygon>
                        <polygon id="Oval-Copy-597" points="140.955717 244.285165 144.088066 241.153304 140.955717 238.021443 137.823368 241.153304"></polygon>
                        <polygon id="Oval-Copy-596" points="153.485114 244.285165 156.617463 241.153304 153.485114 238.021443 150.352765 241.153304"></polygon>
                        <polygon id="Oval-Copy-595" points="166.014511 244.285165 169.14686 241.153304 166.014511 238.021443 162.882162 241.153304"></polygon>
                        <polygon id="Oval-Copy-594" points="178.543908 244.285165 181.676257 241.153304 178.543908 238.021443 175.411559 241.153304"></polygon>
                        <polygon id="Oval-Copy-593" points="191.073305 244.285165 194.205654 241.153304 191.073305 238.021443 187.940956 241.153304"></polygon>
                        <polygon id="Oval-Copy-592" points="203.602702 244.285165 206.735051 241.153304 203.602702 238.021443 200.470353 241.153304"></polygon>
                        <polygon id="Oval-Copy-591" points="216.132099 244.285165 219.264448 241.153304 216.132099 238.021443 212.99975 241.153304"></polygon>
                        <polygon id="Oval-Copy-590" points="228.661496 244.285165 231.793845 241.153304 228.661496 238.021443 225.529147 241.153304"></polygon>
                        <polygon id="Oval-Copy-589" points="241.190893 244.285165 244.323242 241.153304 241.190893 238.021443 238.058544 241.153304"></polygon>
                        <polygon id="Oval-Copy-588" points="253.72029 244.285165 256.852639 241.153304 253.72029 238.021443 250.587941 241.153304"></polygon>
                    </g>
                </g>
            </g>
        </g>
    </g>
</svg>