<?xml version="1.0" encoding="UTF-8"?>
<svg width="392px" height="380px" viewBox="0 0 392 380" version="1.1" xmlns="http://www.w3.org/2000/svg" xmlns:xlink="http://www.w3.org/1999/xlink">
    <!-- Generator: Sketch 54.1 (76490) - https://sketchapp.com -->
    <title>9</title>
    <desc>Created with Sketch.</desc>
    <defs>
        <path d="M196,392 C304.247811,392 392,304.247811 392,196 C392,87.752189 304.247811,0 196,0 C87.752189,0 0,87.752189 0,196 C0,304.247811 87.752189,392 196,392 Z M196,289.650131 C144.278461,289.650131 102.349869,247.721539 102.349869,196 C102.349869,144.278461 144.278461,102.349869 196,102.349869 C247.721539,102.349869 289.650131,144.278461 289.650131,196 C289.650131,247.721539 247.721539,289.650131 196,289.650131 Z" id="path-1"></path>
    </defs>
    <g id="Final-2" stroke="none" stroke-width="1" fill="none" fill-rule="evenodd">
        <g id="Kit" transform="translate(-502.000000, -2941.000000)">
            <g id="9" transform="translate(502.000000, 2934.000000)">
                <mask id="mask-2" fill="white">
                    <use xlink:href="#path-1"></use>
                </mask>
                <g id="Mask" fill-rule="nonzero"></g>
                <g id="Group-4" mask="url(#mask-2)" stroke="#80CDF8">
                    <g transform="translate(-20.000000, -13.000000)">
                        <polygon id="Oval-Copy-40" points="25.5902618 30.7092994 30.7083142 25.5910828 25.5902618 20.4728663 20.4722094 25.5910828"></polygon>
                        <polygon id="Oval-Copy-39" points="46.0624712 30.7092994 51.1805236 25.5910828 46.0624712 20.4728663 40.9444189 25.5910828"></polygon>
                        <polygon id="Oval-Copy-38" points="66.5346807 30.7092994 71.652733 25.5910828 66.5346807 20.4728663 61.4166283 25.5910828"></polygon>
                        <polygon id="Oval-Copy-37" points="87.0068901 30.7092994 92.1249425 25.5910828 87.0068901 20.4728663 81.8888378 25.5910828"></polygon>
                        <polygon id="Oval-Copy-36" points="107.4791 30.7092994 112.597152 25.5910828 107.4791 20.4728663 102.361047 25.5910828"></polygon>
                        <polygon id="Oval-Copy-35" points="127.951309 30.7092994 133.069361 25.5910828 127.951309 20.4728663 122.833257 25.5910828"></polygon>
                        <polygon id="Oval-Copy-34" points="148.423518 30.7092994 153.541571 25.5910828 148.423518 20.4728663 143.305466 25.5910828"></polygon>
                        <polygon id="Oval-Copy-33" points="168.895728 30.7092994 174.01378 25.5910828 168.895728 20.4728663 163.777676 25.5910828"></polygon>
                        <polygon id="Oval-Copy-32" points="189.367937 30.7092994 194.48599 25.5910828 189.367937 20.4728663 184.249885 25.5910828"></polygon>
                        <polygon id="Oval-Copy-31" points="209.840147 30.7092994 214.958199 25.5910828 209.840147 20.4728663 204.722094 25.5910828"></polygon>
                        <polygon id="Oval-Copy-30" points="230.312356 30.7092994 235.430409 25.5910828 230.312356 20.4728663 225.194304 25.5910828"></polygon>
                        <polygon id="Oval-Copy-29" points="250.784566 30.7092994 255.902618 25.5910828 250.784566 20.4728663 245.666513 25.5910828"></polygon>
                        <polygon id="Oval-Copy-28" points="271.256775 30.7092994 276.374827 25.5910828 271.256775 20.4728663 266.138723 25.5910828"></polygon>
                        <polygon id="Oval-Copy-27" points="291.728985 30.7092994 296.847037 25.5910828 291.728985 20.4728663 286.610932 25.5910828"></polygon>
                        <polygon id="Oval-Copy-26" points="312.201194 30.7092994 317.319246 25.5910828 312.201194 20.4728663 307.083142 25.5910828"></polygon>
                        <polygon id="Oval-Copy-25" points="332.673403 30.7092994 337.791456 25.5910828 332.673403 20.4728663 327.555351 25.5910828"></polygon>
                        <polygon id="Oval-Copy-24" points="353.145613 30.7092994 358.263665 25.5910828 353.145613 20.4728663 348.02756 25.5910828"></polygon>
                        <polygon id="Oval-Copy-23" points="373.617822 30.7092994 378.735875 25.5910828 373.617822 20.4728663 368.49977 25.5910828"></polygon>
                        <polygon id="Oval-Copy-22" points="394.090032 30.7092994 399.208084 25.5910828 394.090032 20.4728663 388.971979 25.5910828"></polygon>
                        <polygon id="Oval-Copy-21" points="414.562241 30.7092994 419.680294 25.5910828 414.562241 20.4728663 409.444189 25.5910828"></polygon>
                        <polygon id="Oval-Copy-83" points="15.3541571 51.1821657 20.4722094 46.0639491 15.3541571 40.9457326 10.2361047 46.0639491"></polygon>
                        <polygon id="Oval-Copy-82" points="35.8263665 51.1821657 40.9444189 46.0639491 35.8263665 40.9457326 30.7083142 46.0639491"></polygon>
                        <polygon id="Oval-Copy-81" points="56.298576 51.1821657 61.4166283 46.0639491 56.298576 40.9457326 51.1805236 46.0639491"></polygon>
                        <polygon id="Oval-Copy-80" points="76.7707854 51.1821657 81.8888378 46.0639491 76.7707854 40.9457326 71.652733 46.0639491"></polygon>
                        <polygon id="Oval-Copy-79" points="97.2429948 51.1821657 102.361047 46.0639491 97.2429948 40.9457326 92.1249425 46.0639491"></polygon>
                        <polygon id="Oval-Copy-78" points="117.715204 51.1821657 122.833257 46.0639491 117.715204 40.9457326 112.597152 46.0639491"></polygon>
                        <polygon id="Oval-Copy-77" points="138.187414 51.1821657 143.305466 46.0639491 138.187414 40.9457326 133.069361 46.0639491"></polygon>
                        <polygon id="Oval-Copy-76" points="158.659623 51.1821657 163.777676 46.0639491 158.659623 40.9457326 153.541571 46.0639491"></polygon>
                        <polygon id="Oval-Copy-75" points="179.131833 51.1821657 184.249885 46.0639491 179.131833 40.9457326 174.01378 46.0639491"></polygon>
                        <polygon id="Oval-Copy-74" points="199.604042 51.1821657 204.722094 46.0639491 199.604042 40.9457326 194.48599 46.0639491"></polygon>
                        <polygon id="Oval-Copy-73" points="220.076251 51.1821657 225.194304 46.0639491 220.076251 40.9457326 214.958199 46.0639491"></polygon>
                        <polygon id="Oval-Copy-72" points="240.548461 51.1821657 245.666513 46.0639491 240.548461 40.9457326 235.430409 46.0639491"></polygon>
                        <polygon id="Oval-Copy-71" points="261.02067 51.1821657 266.138723 46.0639491 261.02067 40.9457326 255.902618 46.0639491"></polygon>
                        <polygon id="Oval-Copy-70" points="281.49288 51.1821657 286.610932 46.0639491 281.49288 40.9457326 276.374827 46.0639491"></polygon>
                        <polygon id="Oval-Copy-69" points="301.965089 51.1821657 307.083142 46.0639491 301.965089 40.9457326 296.847037 46.0639491"></polygon>
                        <polygon id="Oval-Copy-68" points="322.437299 51.1821657 327.555351 46.0639491 322.437299 40.9457326 317.319246 46.0639491"></polygon>
                        <polygon id="Oval-Copy-67" points="342.909508 51.1821657 348.02756 46.0639491 342.909508 40.9457326 337.791456 46.0639491"></polygon>
                        <polygon id="Oval-Copy-66" points="363.381718 51.1821657 368.49977 46.0639491 363.381718 40.9457326 358.263665 46.0639491"></polygon>
                        <polygon id="Oval-Copy-65" points="383.853927 51.1821657 388.971979 46.0639491 383.853927 40.9457326 378.735875 46.0639491"></polygon>
                        <polygon id="Oval-Copy-64" points="404.326136 51.1821657 409.444189 46.0639491 404.326136 40.9457326 399.208084 46.0639491"></polygon>
                        <polygon id="Oval-Copy-61" points="25.5902618 71.655032 30.7083142 66.5368154 25.5902618 61.4185988 20.4722094 66.5368154"></polygon>
                        <polygon id="Oval-Copy-60" points="46.0624712 71.655032 51.1805236 66.5368154 46.0624712 61.4185988 40.9444189 66.5368154"></polygon>
                        <polygon id="Oval-Copy-59" points="66.5346807 71.655032 71.652733 66.5368154 66.5346807 61.4185988 61.4166283 66.5368154"></polygon>
                        <polygon id="Oval-Copy-58" points="87.0068901 71.655032 92.1249425 66.5368154 87.0068901 61.4185988 81.8888378 66.5368154"></polygon>
                        <polygon id="Oval-Copy-57" points="107.4791 71.655032 112.597152 66.5368154 107.4791 61.4185988 102.361047 66.5368154"></polygon>
                        <polygon id="Oval-Copy-56" points="127.951309 71.655032 133.069361 66.5368154 127.951309 61.4185988 122.833257 66.5368154"></polygon>
                        <polygon id="Oval-Copy-55" points="148.423518 71.655032 153.541571 66.5368154 148.423518 61.4185988 143.305466 66.5368154"></polygon>
                        <polygon id="Oval-Copy-54" points="168.895728 71.655032 174.01378 66.5368154 168.895728 61.4185988 163.777676 66.5368154"></polygon>
                        <polygon id="Oval-Copy-53" points="189.367937 71.655032 194.48599 66.5368154 189.367937 61.4185988 184.249885 66.5368154"></polygon>
                        <polygon id="Oval-Copy-52" points="209.840147 71.655032 214.958199 66.5368154 209.840147 61.4185988 204.722094 66.5368154"></polygon>
                        <polygon id="Oval-Copy-51" points="230.312356 71.655032 235.430409 66.5368154 230.312356 61.4185988 225.194304 66.5368154"></polygon>
                        <polygon id="Oval-Copy-50" points="250.784566 71.655032 255.902618 66.5368154 250.784566 61.4185988 245.666513 66.5368154"></polygon>
                        <polygon id="Oval-Copy-49" points="271.256775 71.655032 276.374827 66.5368154 271.256775 61.4185988 266.138723 66.5368154"></polygon>
                        <polygon id="Oval-Copy-48" points="291.728985 71.655032 296.847037 66.5368154 291.728985 61.4185988 286.610932 66.5368154"></polygon>
                        <polygon id="Oval-Copy-47" points="312.201194 71.655032 317.319246 66.5368154 312.201194 61.4185988 307.083142 66.5368154"></polygon>
                        <polygon id="Oval-Copy-46" points="332.673403 71.655032 337.791456 66.5368154 332.673403 61.4185988 327.555351 66.5368154"></polygon>
                        <polygon id="Oval-Copy-45" points="353.145613 71.655032 358.263665 66.5368154 353.145613 61.4185988 348.02756 66.5368154"></polygon>
                        <polygon id="Oval-Copy-44" points="373.617822 71.655032 378.735875 66.5368154 373.617822 61.4185988 368.49977 66.5368154"></polygon>
                        <polygon id="Oval-Copy-43" points="394.090032 71.655032 399.208084 66.5368154 394.090032 61.4185988 388.971979 66.5368154"></polygon>
                        <polygon id="Oval-Copy-42" points="414.562241 71.655032 419.680294 66.5368154 414.562241 61.4185988 409.444189 66.5368154"></polygon>
                        <polygon id="Oval-Copy-167" points="15.3541571 92.1278982 20.4722094 87.0096817 15.3541571 81.8914651 10.2361047 87.0096817"></polygon>
                        <polygon id="Oval-Copy-166" points="35.8263665 92.1278982 40.9444189 87.0096817 35.8263665 81.8914651 30.7083142 87.0096817"></polygon>
                        <polygon id="Oval-Copy-165" points="56.298576 92.1278982 61.4166283 87.0096817 56.298576 81.8914651 51.1805236 87.0096817"></polygon>
                        <polygon id="Oval-Copy-164" points="76.7707854 92.1278982 81.8888378 87.0096817 76.7707854 81.8914651 71.652733 87.0096817"></polygon>
                        <polygon id="Oval-Copy-163" points="97.2429948 92.1278982 102.361047 87.0096817 97.2429948 81.8914651 92.1249425 87.0096817"></polygon>
                        <polygon id="Oval-Copy-162" points="117.715204 92.1278982 122.833257 87.0096817 117.715204 81.8914651 112.597152 87.0096817"></polygon>
                        <polygon id="Oval-Copy-161" points="138.187414 92.1278982 143.305466 87.0096817 138.187414 81.8914651 133.069361 87.0096817"></polygon>
                        <polygon id="Oval-Copy-160" points="158.659623 92.1278982 163.777676 87.0096817 158.659623 81.8914651 153.541571 87.0096817"></polygon>
                        <polygon id="Oval-Copy-159" points="179.131833 92.1278982 184.249885 87.0096817 179.131833 81.8914651 174.01378 87.0096817"></polygon>
                        <polygon id="Oval-Copy-158" points="199.604042 92.1278982 204.722094 87.0096817 199.604042 81.8914651 194.48599 87.0096817"></polygon>
                        <polygon id="Oval-Copy-157" points="220.076251 92.1278982 225.194304 87.0096817 220.076251 81.8914651 214.958199 87.0096817"></polygon>
                        <polygon id="Oval-Copy-156" points="240.548461 92.1278982 245.666513 87.0096817 240.548461 81.8914651 235.430409 87.0096817"></polygon>
                        <polygon id="Oval-Copy-155" points="261.02067 92.1278982 266.138723 87.0096817 261.02067 81.8914651 255.902618 87.0096817"></polygon>
                        <polygon id="Oval-Copy-154" points="281.49288 92.1278982 286.610932 87.0096817 281.49288 81.8914651 276.374827 87.0096817"></polygon>
                        <polygon id="Oval-Copy-153" points="301.965089 92.1278982 307.083142 87.0096817 301.965089 81.8914651 296.847037 87.0096817"></polygon>
                        <polygon id="Oval-Copy-152" points="322.437299 92.1278982 327.555351 87.0096817 322.437299 81.8914651 317.319246 87.0096817"></polygon>
                        <polygon id="Oval-Copy-151" points="342.909508 92.1278982 348.02756 87.0096817 342.909508 81.8914651 337.791456 87.0096817"></polygon>
                        <polygon id="Oval-Copy-150" points="363.381718 92.1278982 368.49977 87.0096817 363.381718 81.8914651 358.263665 87.0096817"></polygon>
                        <polygon id="Oval-Copy-149" points="383.853927 92.1278982 388.971979 87.0096817 383.853927 81.8914651 378.735875 87.0096817"></polygon>
                        <polygon id="Oval-Copy-148" points="404.326136 92.1278982 409.444189 87.0096817 404.326136 81.8914651 399.208084 87.0096817"></polygon>
                        <polygon id="Oval-Copy-145" points="25.5902618 112.600765 30.7083142 107.482548 25.5902618 102.364331 20.4722094 107.482548"></polygon>
                        <polygon id="Oval-Copy-144" points="46.0624712 112.600765 51.1805236 107.482548 46.0624712 102.364331 40.9444189 107.482548"></polygon>
                        <polygon id="Oval-Copy-143" points="66.5346807 112.600765 71.652733 107.482548 66.5346807 102.364331 61.4166283 107.482548"></polygon>
                        <polygon id="Oval-Copy-142" points="87.0068901 112.600765 92.1249425 107.482548 87.0068901 102.364331 81.8888378 107.482548"></polygon>
                        <polygon id="Oval-Copy-141" points="107.4791 112.600765 112.597152 107.482548 107.4791 102.364331 102.361047 107.482548"></polygon>
                        <polygon id="Oval-Copy-140" points="127.951309 112.600765 133.069361 107.482548 127.951309 102.364331 122.833257 107.482548"></polygon>
                        <polygon id="Oval-Copy-139" points="148.423518 112.600765 153.541571 107.482548 148.423518 102.364331 143.305466 107.482548"></polygon>
                        <polygon id="Oval-Copy-138" points="168.895728 112.600765 174.01378 107.482548 168.895728 102.364331 163.777676 107.482548"></polygon>
                        <polygon id="Oval-Copy-137" points="189.367937 112.600765 194.48599 107.482548 189.367937 102.364331 184.249885 107.482548"></polygon>
                        <polygon id="Oval-Copy-136" points="209.840147 112.600765 214.958199 107.482548 209.840147 102.364331 204.722094 107.482548"></polygon>
                        <polygon id="Oval-Copy-135" points="230.312356 112.600765 235.430409 107.482548 230.312356 102.364331 225.194304 107.482548"></polygon>
                        <polygon id="Oval-Copy-134" points="250.784566 112.600765 255.902618 107.482548 250.784566 102.364331 245.666513 107.482548"></polygon>
                        <polygon id="Oval-Copy-133" points="271.256775 112.600765 276.374827 107.482548 271.256775 102.364331 266.138723 107.482548"></polygon>
                        <polygon id="Oval-Copy-132" points="291.728985 112.600765 296.847037 107.482548 291.728985 102.364331 286.610932 107.482548"></polygon>
                        <polygon id="Oval-Copy-131" points="312.201194 112.600765 317.319246 107.482548 312.201194 102.364331 307.083142 107.482548"></polygon>
                        <polygon id="Oval-Copy-130" points="332.673403 112.600765 337.791456 107.482548 332.673403 102.364331 327.555351 107.482548"></polygon>
                        <polygon id="Oval-Copy-129" points="353.145613 112.600765 358.263665 107.482548 353.145613 102.364331 348.02756 107.482548"></polygon>
                        <polygon id="Oval-Copy-128" points="373.617822 112.600765 378.735875 107.482548 373.617822 102.364331 368.49977 107.482548"></polygon>
                        <polygon id="Oval-Copy-127" points="394.090032 112.600765 399.208084 107.482548 394.090032 102.364331 388.971979 107.482548"></polygon>
                        <polygon id="Oval-Copy-126" points="414.562241 112.600765 419.680294 107.482548 414.562241 102.364331 409.444189 107.482548"></polygon>
                        <polygon id="Oval-Copy-125" points="15.3541571 133.073631 20.4722094 127.955414 15.3541571 122.837198 10.2361047 127.955414"></polygon>
                        <polygon id="Oval-Copy-124" points="35.8263665 133.073631 40.9444189 127.955414 35.8263665 122.837198 30.7083142 127.955414"></polygon>
                        <polygon id="Oval-Copy-123" points="56.298576 133.073631 61.4166283 127.955414 56.298576 122.837198 51.1805236 127.955414"></polygon>
                        <polygon id="Oval-Copy-122" points="76.7707854 133.073631 81.8888378 127.955414 76.7707854 122.837198 71.652733 127.955414"></polygon>
                        <polygon id="Oval-Copy-121" points="97.2429948 133.073631 102.361047 127.955414 97.2429948 122.837198 92.1249425 127.955414"></polygon>
                        <polygon id="Oval-Copy-120" points="117.715204 133.073631 122.833257 127.955414 117.715204 122.837198 112.597152 127.955414"></polygon>
                        <polygon id="Oval-Copy-119" points="138.187414 133.073631 143.305466 127.955414 138.187414 122.837198 133.069361 127.955414"></polygon>
                        <polygon id="Oval-Copy-118" points="158.659623 133.073631 163.777676 127.955414 158.659623 122.837198 153.541571 127.955414"></polygon>
                        <polygon id="Oval-Copy-117" points="179.131833 133.073631 184.249885 127.955414 179.131833 122.837198 174.01378 127.955414"></polygon>
                        <polygon id="Oval-Copy-116" points="199.604042 133.073631 204.722094 127.955414 199.604042 122.837198 194.48599 127.955414"></polygon>
                        <polygon id="Oval-Copy-115" points="220.076251 133.073631 225.194304 127.955414 220.076251 122.837198 214.958199 127.955414"></polygon>
                        <polygon id="Oval-Copy-114" points="240.548461 133.073631 245.666513 127.955414 240.548461 122.837198 235.430409 127.955414"></polygon>
                        <polygon id="Oval-Copy-113" points="261.02067 133.073631 266.138723 127.955414 261.02067 122.837198 255.902618 127.955414"></polygon>
                        <polygon id="Oval-Copy-112" points="281.49288 133.073631 286.610932 127.955414 281.49288 122.837198 276.374827 127.955414"></polygon>
                        <polygon id="Oval-Copy-111" points="301.965089 133.073631 307.083142 127.955414 301.965089 122.837198 296.847037 127.955414"></polygon>
                        <polygon id="Oval-Copy-110" points="322.437299 133.073631 327.555351 127.955414 322.437299 122.837198 317.319246 127.955414"></polygon>
                        <polygon id="Oval-Copy-109" points="342.909508 133.073631 348.02756 127.955414 342.909508 122.837198 337.791456 127.955414"></polygon>
                        <polygon id="Oval-Copy-108" points="363.381718 133.073631 368.49977 127.955414 363.381718 122.837198 358.263665 127.955414"></polygon>
                        <polygon id="Oval-Copy-107" points="383.853927 133.073631 388.971979 127.955414 383.853927 122.837198 378.735875 127.955414"></polygon>
                        <polygon id="Oval-Copy-106" points="404.326136 133.073631 409.444189 127.955414 404.326136 122.837198 399.208084 127.955414"></polygon>
                        <polygon id="Oval-Copy-103" points="25.5902618 153.546497 30.7083142 148.42828 25.5902618 143.310064 20.4722094 148.42828"></polygon>
                        <polygon id="Oval-Copy-102" points="46.0624712 153.546497 51.1805236 148.42828 46.0624712 143.310064 40.9444189 148.42828"></polygon>
                        <polygon id="Oval-Copy-101" points="66.5346807 153.546497 71.652733 148.42828 66.5346807 143.310064 61.4166283 148.42828"></polygon>
                        <polygon id="Oval-Copy-100" points="87.0068901 153.546497 92.1249425 148.42828 87.0068901 143.310064 81.8888378 148.42828"></polygon>
                        <polygon id="Oval-Copy-99" points="107.4791 153.546497 112.597152 148.42828 107.4791 143.310064 102.361047 148.42828"></polygon>
                        <polygon id="Oval-Copy-98" points="127.951309 153.546497 133.069361 148.42828 127.951309 143.310064 122.833257 148.42828"></polygon>
                        <polygon id="Oval-Copy-97" points="148.423518 153.546497 153.541571 148.42828 148.423518 143.310064 143.305466 148.42828"></polygon>
                        <polygon id="Oval-Copy-96" points="168.895728 153.546497 174.01378 148.42828 168.895728 143.310064 163.777676 148.42828"></polygon>
                        <polygon id="Oval-Copy-95" points="189.367937 153.546497 194.48599 148.42828 189.367937 143.310064 184.249885 148.42828"></polygon>
                        <polygon id="Oval-Copy-94" points="209.840147 153.546497 214.958199 148.42828 209.840147 143.310064 204.722094 148.42828"></polygon>
                        <polygon id="Oval-Copy-93" points="230.312356 153.546497 235.430409 148.42828 230.312356 143.310064 225.194304 148.42828"></polygon>
                        <polygon id="Oval-Copy-92" points="250.784566 153.546497 255.902618 148.42828 250.784566 143.310064 245.666513 148.42828"></polygon>
                        <polygon id="Oval-Copy-91" points="271.256775 153.546497 276.374827 148.42828 271.256775 143.310064 266.138723 148.42828"></polygon>
                        <polygon id="Oval-Copy-90" points="291.728985 153.546497 296.847037 148.42828 291.728985 143.310064 286.610932 148.42828"></polygon>
                        <polygon id="Oval-Copy-89" points="312.201194 153.546497 317.319246 148.42828 312.201194 143.310064 307.083142 148.42828"></polygon>
                        <polygon id="Oval-Copy-88" points="332.673403 153.546497 337.791456 148.42828 332.673403 143.310064 327.555351 148.42828"></polygon>
                        <polygon id="Oval-Copy-87" points="353.145613 153.546497 358.263665 148.42828 353.145613 143.310064 348.02756 148.42828"></polygon>
                        <polygon id="Oval-Copy-86" points="373.617822 153.546497 378.735875 148.42828 373.617822 143.310064 368.49977 148.42828"></polygon>
                        <polygon id="Oval-Copy-85" points="394.090032 153.546497 399.208084 148.42828 394.090032 143.310064 388.971979 148.42828"></polygon>
                        <polygon id="Oval-Copy-84" points="414.562241 153.546497 419.680294 148.42828 414.562241 143.310064 409.444189 148.42828"></polygon>
                        <polygon id="Oval-Copy-313" points="25.5902618 30.7092994 30.7083142 25.5910828 25.5902618 20.4728663 20.4722094 25.5910828"></polygon>
                        <polygon id="Oval-Copy-312" points="46.0624712 30.7092994 51.1805236 25.5910828 46.0624712 20.4728663 40.9444189 25.5910828"></polygon>
                        <polygon id="Oval-Copy-311" points="66.5346807 30.7092994 71.652733 25.5910828 66.5346807 20.4728663 61.4166283 25.5910828"></polygon>
                        <polygon id="Oval-Copy-310" points="87.0068901 30.7092994 92.1249425 25.5910828 87.0068901 20.4728663 81.8888378 25.5910828"></polygon>
                        <polygon id="Oval-Copy-309" points="107.4791 30.7092994 112.597152 25.5910828 107.4791 20.4728663 102.361047 25.5910828"></polygon>
                        <polygon id="Oval-Copy-308" points="127.951309 30.7092994 133.069361 25.5910828 127.951309 20.4728663 122.833257 25.5910828"></polygon>
                        <polygon id="Oval-Copy-307" points="148.423518 30.7092994 153.541571 25.5910828 148.423518 20.4728663 143.305466 25.5910828"></polygon>
                        <polygon id="Oval-Copy-306" points="168.895728 30.7092994 174.01378 25.5910828 168.895728 20.4728663 163.777676 25.5910828"></polygon>
                        <polygon id="Oval-Copy-305" points="189.367937 30.7092994 194.48599 25.5910828 189.367937 20.4728663 184.249885 25.5910828"></polygon>
                        <polygon id="Oval-Copy-304" points="209.840147 30.7092994 214.958199 25.5910828 209.840147 20.4728663 204.722094 25.5910828"></polygon>
                        <polygon id="Oval-Copy-303" points="230.312356 30.7092994 235.430409 25.5910828 230.312356 20.4728663 225.194304 25.5910828"></polygon>
                        <polygon id="Oval-Copy-302" points="250.784566 30.7092994 255.902618 25.5910828 250.784566 20.4728663 245.666513 25.5910828"></polygon>
                        <polygon id="Oval-Copy-301" points="271.256775 30.7092994 276.374827 25.5910828 271.256775 20.4728663 266.138723 25.5910828"></polygon>
                        <polygon id="Oval-Copy-300" points="291.728985 30.7092994 296.847037 25.5910828 291.728985 20.4728663 286.610932 25.5910828"></polygon>
                        <polygon id="Oval-Copy-299" points="312.201194 30.7092994 317.319246 25.5910828 312.201194 20.4728663 307.083142 25.5910828"></polygon>
                        <polygon id="Oval-Copy-298" points="332.673403 30.7092994 337.791456 25.5910828 332.673403 20.4728663 327.555351 25.5910828"></polygon>
                        <polygon id="Oval-Copy-297" points="353.145613 30.7092994 358.263665 25.5910828 353.145613 20.4728663 348.02756 25.5910828"></polygon>
                        <polygon id="Oval-Copy-296" points="373.617822 30.7092994 378.735875 25.5910828 373.617822 20.4728663 368.49977 25.5910828"></polygon>
                        <polygon id="Oval-Copy-295" points="394.090032 30.7092994 399.208084 25.5910828 394.090032 20.4728663 388.971979 25.5910828"></polygon>
                        <polygon id="Oval-Copy-294" points="414.562241 30.7092994 419.680294 25.5910828 414.562241 20.4728663 409.444189 25.5910828"></polygon>
                        <polygon id="Oval-Copy-293" points="15.3541571 51.1821657 20.4722094 46.0639491 15.3541571 40.9457326 10.2361047 46.0639491"></polygon>
                        <polygon id="Oval-Copy-292" points="35.8263665 51.1821657 40.9444189 46.0639491 35.8263665 40.9457326 30.7083142 46.0639491"></polygon>
                        <polygon id="Oval-Copy-291" points="56.298576 51.1821657 61.4166283 46.0639491 56.298576 40.9457326 51.1805236 46.0639491"></polygon>
                        <polygon id="Oval-Copy-290" points="76.7707854 51.1821657 81.8888378 46.0639491 76.7707854 40.9457326 71.652733 46.0639491"></polygon>
                        <polygon id="Oval-Copy-289" points="97.2429948 51.1821657 102.361047 46.0639491 97.2429948 40.9457326 92.1249425 46.0639491"></polygon>
                        <polygon id="Oval-Copy-288" points="117.715204 51.1821657 122.833257 46.0639491 117.715204 40.9457326 112.597152 46.0639491"></polygon>
                        <polygon id="Oval-Copy-287" points="138.187414 51.1821657 143.305466 46.0639491 138.187414 40.9457326 133.069361 46.0639491"></polygon>
                        <polygon id="Oval-Copy-286" points="158.659623 51.1821657 163.777676 46.0639491 158.659623 40.9457326 153.541571 46.0639491"></polygon>
                        <polygon id="Oval-Copy-285" points="179.131833 51.1821657 184.249885 46.0639491 179.131833 40.9457326 174.01378 46.0639491"></polygon>
                        <polygon id="Oval-Copy-284" points="199.604042 51.1821657 204.722094 46.0639491 199.604042 40.9457326 194.48599 46.0639491"></polygon>
                        <polygon id="Oval-Copy-283" points="220.076251 51.1821657 225.194304 46.0639491 220.076251 40.9457326 214.958199 46.0639491"></polygon>
                        <polygon id="Oval-Copy-282" points="240.548461 51.1821657 245.666513 46.0639491 240.548461 40.9457326 235.430409 46.0639491"></polygon>
                        <polygon id="Oval-Copy-281" points="261.02067 51.1821657 266.138723 46.0639491 261.02067 40.9457326 255.902618 46.0639491"></polygon>
                        <polygon id="Oval-Copy-280" points="281.49288 51.1821657 286.610932 46.0639491 281.49288 40.9457326 276.374827 46.0639491"></polygon>
                        <polygon id="Oval-Copy-279" points="301.965089 51.1821657 307.083142 46.0639491 301.965089 40.9457326 296.847037 46.0639491"></polygon>
                        <polygon id="Oval-Copy-278" points="322.437299 51.1821657 327.555351 46.0639491 322.437299 40.9457326 317.319246 46.0639491"></polygon>
                        <polygon id="Oval-Copy-277" points="342.909508 51.1821657 348.02756 46.0639491 342.909508 40.9457326 337.791456 46.0639491"></polygon>
                        <polygon id="Oval-Copy-276" points="363.381718 51.1821657 368.49977 46.0639491 363.381718 40.9457326 358.263665 46.0639491"></polygon>
                        <polygon id="Oval-Copy-275" points="383.853927 51.1821657 388.971979 46.0639491 383.853927 40.9457326 378.735875 46.0639491"></polygon>
                        <polygon id="Oval-Copy-274" points="404.326136 51.1821657 409.444189 46.0639491 404.326136 40.9457326 399.208084 46.0639491"></polygon>
                        <polygon id="Oval-Copy-271" points="25.5902618 71.655032 30.7083142 66.5368154 25.5902618 61.4185988 20.4722094 66.5368154"></polygon>
                        <polygon id="Oval-Copy-270" points="46.0624712 71.655032 51.1805236 66.5368154 46.0624712 61.4185988 40.9444189 66.5368154"></polygon>
                        <polygon id="Oval-Copy-269" points="66.5346807 71.655032 71.652733 66.5368154 66.5346807 61.4185988 61.4166283 66.5368154"></polygon>
                        <polygon id="Oval-Copy-268" points="87.0068901 71.655032 92.1249425 66.5368154 87.0068901 61.4185988 81.8888378 66.5368154"></polygon>
                        <polygon id="Oval-Copy-267" points="107.4791 71.655032 112.597152 66.5368154 107.4791 61.4185988 102.361047 66.5368154"></polygon>
                        <polygon id="Oval-Copy-266" points="127.951309 71.655032 133.069361 66.5368154 127.951309 61.4185988 122.833257 66.5368154"></polygon>
                        <polygon id="Oval-Copy-265" points="148.423518 71.655032 153.541571 66.5368154 148.423518 61.4185988 143.305466 66.5368154"></polygon>
                        <polygon id="Oval-Copy-264" points="168.895728 71.655032 174.01378 66.5368154 168.895728 61.4185988 163.777676 66.5368154"></polygon>
                        <polygon id="Oval-Copy-263" points="189.367937 71.655032 194.48599 66.5368154 189.367937 61.4185988 184.249885 66.5368154"></polygon>
                        <polygon id="Oval-Copy-262" points="209.840147 71.655032 214.958199 66.5368154 209.840147 61.4185988 204.722094 66.5368154"></polygon>
                        <polygon id="Oval-Copy-261" points="230.312356 71.655032 235.430409 66.5368154 230.312356 61.4185988 225.194304 66.5368154"></polygon>
                        <polygon id="Oval-Copy-260" points="250.784566 71.655032 255.902618 66.5368154 250.784566 61.4185988 245.666513 66.5368154"></polygon>
                        <polygon id="Oval-Copy-259" points="271.256775 71.655032 276.374827 66.5368154 271.256775 61.4185988 266.138723 66.5368154"></polygon>
                        <polygon id="Oval-Copy-258" points="291.728985 71.655032 296.847037 66.5368154 291.728985 61.4185988 286.610932 66.5368154"></polygon>
                        <polygon id="Oval-Copy-257" points="312.201194 71.655032 317.319246 66.5368154 312.201194 61.4185988 307.083142 66.5368154"></polygon>
                        <polygon id="Oval-Copy-256" points="332.673403 71.655032 337.791456 66.5368154 332.673403 61.4185988 327.555351 66.5368154"></polygon>
                        <polygon id="Oval-Copy-255" points="353.145613 71.655032 358.263665 66.5368154 353.145613 61.4185988 348.02756 66.5368154"></polygon>
                        <polygon id="Oval-Copy-254" points="373.617822 71.655032 378.735875 66.5368154 373.617822 61.4185988 368.49977 66.5368154"></polygon>
                        <polygon id="Oval-Copy-253" points="394.090032 71.655032 399.208084 66.5368154 394.090032 61.4185988 388.971979 66.5368154"></polygon>
                        <polygon id="Oval-Copy-252" points="414.562241 71.655032 419.680294 66.5368154 414.562241 61.4185988 409.444189 66.5368154"></polygon>
                        <polygon id="Oval-Copy-251" points="15.3541571 92.1278982 20.4722094 87.0096817 15.3541571 81.8914651 10.2361047 87.0096817"></polygon>
                        <polygon id="Oval-Copy-250" points="35.8263665 92.1278982 40.9444189 87.0096817 35.8263665 81.8914651 30.7083142 87.0096817"></polygon>
                        <polygon id="Oval-Copy-249" points="56.298576 92.1278982 61.4166283 87.0096817 56.298576 81.8914651 51.1805236 87.0096817"></polygon>
                        <polygon id="Oval-Copy-248" points="76.7707854 92.1278982 81.8888378 87.0096817 76.7707854 81.8914651 71.652733 87.0096817"></polygon>
                        <polygon id="Oval-Copy-247" points="97.2429948 92.1278982 102.361047 87.0096817 97.2429948 81.8914651 92.1249425 87.0096817"></polygon>
                        <polygon id="Oval-Copy-246" points="117.715204 92.1278982 122.833257 87.0096817 117.715204 81.8914651 112.597152 87.0096817"></polygon>
                        <polygon id="Oval-Copy-245" points="138.187414 92.1278982 143.305466 87.0096817 138.187414 81.8914651 133.069361 87.0096817"></polygon>
                        <polygon id="Oval-Copy-244" points="158.659623 92.1278982 163.777676 87.0096817 158.659623 81.8914651 153.541571 87.0096817"></polygon>
                        <polygon id="Oval-Copy-243" points="179.131833 92.1278982 184.249885 87.0096817 179.131833 81.8914651 174.01378 87.0096817"></polygon>
                        <polygon id="Oval-Copy-242" points="199.604042 92.1278982 204.722094 87.0096817 199.604042 81.8914651 194.48599 87.0096817"></polygon>
                        <polygon id="Oval-Copy-241" points="220.076251 92.1278982 225.194304 87.0096817 220.076251 81.8914651 214.958199 87.0096817"></polygon>
                        <polygon id="Oval-Copy-240" points="240.548461 92.1278982 245.666513 87.0096817 240.548461 81.8914651 235.430409 87.0096817"></polygon>
                        <polygon id="Oval-Copy-239" points="261.02067 92.1278982 266.138723 87.0096817 261.02067 81.8914651 255.902618 87.0096817"></polygon>
                        <polygon id="Oval-Copy-238" points="281.49288 92.1278982 286.610932 87.0096817 281.49288 81.8914651 276.374827 87.0096817"></polygon>
                        <polygon id="Oval-Copy-237" points="301.965089 92.1278982 307.083142 87.0096817 301.965089 81.8914651 296.847037 87.0096817"></polygon>
                        <polygon id="Oval-Copy-236" points="322.437299 92.1278982 327.555351 87.0096817 322.437299 81.8914651 317.319246 87.0096817"></polygon>
                        <polygon id="Oval-Copy-235" points="342.909508 92.1278982 348.02756 87.0096817 342.909508 81.8914651 337.791456 87.0096817"></polygon>
                        <polygon id="Oval-Copy-234" points="363.381718 92.1278982 368.49977 87.0096817 363.381718 81.8914651 358.263665 87.0096817"></polygon>
                        <polygon id="Oval-Copy-233" points="383.853927 92.1278982 388.971979 87.0096817 383.853927 81.8914651 378.735875 87.0096817"></polygon>
                        <polygon id="Oval-Copy-232" points="404.326136 92.1278982 409.444189 87.0096817 404.326136 81.8914651 399.208084 87.0096817"></polygon>
                        <polygon id="Oval-Copy-229" points="25.5902618 112.600765 30.7083142 107.482548 25.5902618 102.364331 20.4722094 107.482548"></polygon>
                        <polygon id="Oval-Copy-228" points="46.0624712 112.600765 51.1805236 107.482548 46.0624712 102.364331 40.9444189 107.482548"></polygon>
                        <polygon id="Oval-Copy-227" points="66.5346807 112.600765 71.652733 107.482548 66.5346807 102.364331 61.4166283 107.482548"></polygon>
                        <polygon id="Oval-Copy-226" points="87.0068901 112.600765 92.1249425 107.482548 87.0068901 102.364331 81.8888378 107.482548"></polygon>
                        <polygon id="Oval-Copy-225" points="107.4791 112.600765 112.597152 107.482548 107.4791 102.364331 102.361047 107.482548"></polygon>
                        <polygon id="Oval-Copy-224" points="127.951309 112.600765 133.069361 107.482548 127.951309 102.364331 122.833257 107.482548"></polygon>
                        <polygon id="Oval-Copy-223" points="148.423518 112.600765 153.541571 107.482548 148.423518 102.364331 143.305466 107.482548"></polygon>
                        <polygon id="Oval-Copy-222" points="168.895728 112.600765 174.01378 107.482548 168.895728 102.364331 163.777676 107.482548"></polygon>
                        <polygon id="Oval-Copy-221" points="189.367937 112.600765 194.48599 107.482548 189.367937 102.364331 184.249885 107.482548"></polygon>
                        <polygon id="Oval-Copy-220" points="209.840147 112.600765 214.958199 107.482548 209.840147 102.364331 204.722094 107.482548"></polygon>
                        <polygon id="Oval-Copy-219" points="230.312356 112.600765 235.430409 107.482548 230.312356 102.364331 225.194304 107.482548"></polygon>
                        <polygon id="Oval-Copy-218" points="250.784566 112.600765 255.902618 107.482548 250.784566 102.364331 245.666513 107.482548"></polygon>
                        <polygon id="Oval-Copy-217" points="271.256775 112.600765 276.374827 107.482548 271.256775 102.364331 266.138723 107.482548"></polygon>
                        <polygon id="Oval-Copy-216" points="291.728985 112.600765 296.847037 107.482548 291.728985 102.364331 286.610932 107.482548"></polygon>
                        <polygon id="Oval-Copy-215" points="312.201194 112.600765 317.319246 107.482548 312.201194 102.364331 307.083142 107.482548"></polygon>
                        <polygon id="Oval-Copy-214" points="332.673403 112.600765 337.791456 107.482548 332.673403 102.364331 327.555351 107.482548"></polygon>
                        <polygon id="Oval-Copy-213" points="353.145613 112.600765 358.263665 107.482548 353.145613 102.364331 348.02756 107.482548"></polygon>
                        <polygon id="Oval-Copy-212" points="373.617822 112.600765 378.735875 107.482548 373.617822 102.364331 368.49977 107.482548"></polygon>
                        <polygon id="Oval-Copy-211" points="394.090032 112.600765 399.208084 107.482548 394.090032 102.364331 388.971979 107.482548"></polygon>
                        <polygon id="Oval-Copy-210" points="414.562241 112.600765 419.680294 107.482548 414.562241 102.364331 409.444189 107.482548"></polygon>
                        <polygon id="Oval-Copy-209" points="15.3541571 133.073631 20.4722094 127.955414 15.3541571 122.837198 10.2361047 127.955414"></polygon>
                        <polygon id="Oval-Copy-208" points="35.8263665 133.073631 40.9444189 127.955414 35.8263665 122.837198 30.7083142 127.955414"></polygon>
                        <polygon id="Oval-Copy-207" points="56.298576 133.073631 61.4166283 127.955414 56.298576 122.837198 51.1805236 127.955414"></polygon>
                        <polygon id="Oval-Copy-206" points="76.7707854 133.073631 81.8888378 127.955414 76.7707854 122.837198 71.652733 127.955414"></polygon>
                        <polygon id="Oval-Copy-205" points="97.2429948 133.073631 102.361047 127.955414 97.2429948 122.837198 92.1249425 127.955414"></polygon>
                        <polygon id="Oval-Copy-204" points="117.715204 133.073631 122.833257 127.955414 117.715204 122.837198 112.597152 127.955414"></polygon>
                        <polygon id="Oval-Copy-203" points="138.187414 133.073631 143.305466 127.955414 138.187414 122.837198 133.069361 127.955414"></polygon>
                        <polygon id="Oval-Copy-202" points="158.659623 133.073631 163.777676 127.955414 158.659623 122.837198 153.541571 127.955414"></polygon>
                        <polygon id="Oval-Copy-201" points="179.131833 133.073631 184.249885 127.955414 179.131833 122.837198 174.01378 127.955414"></polygon>
                        <polygon id="Oval-Copy-200" points="199.604042 133.073631 204.722094 127.955414 199.604042 122.837198 194.48599 127.955414"></polygon>
                        <polygon id="Oval-Copy-199" points="220.076251 133.073631 225.194304 127.955414 220.076251 122.837198 214.958199 127.955414"></polygon>
                        <polygon id="Oval-Copy-198" points="240.548461 133.073631 245.666513 127.955414 240.548461 122.837198 235.430409 127.955414"></polygon>
                        <polygon id="Oval-Copy-197" points="261.02067 133.073631 266.138723 127.955414 261.02067 122.837198 255.902618 127.955414"></polygon>
                        <polygon id="Oval-Copy-196" points="281.49288 133.073631 286.610932 127.955414 281.49288 122.837198 276.374827 127.955414"></polygon>
                        <polygon id="Oval-Copy-195" points="301.965089 133.073631 307.083142 127.955414 301.965089 122.837198 296.847037 127.955414"></polygon>
                        <polygon id="Oval-Copy-194" points="322.437299 133.073631 327.555351 127.955414 322.437299 122.837198 317.319246 127.955414"></polygon>
                        <polygon id="Oval-Copy-193" points="342.909508 133.073631 348.02756 127.955414 342.909508 122.837198 337.791456 127.955414"></polygon>
                        <polygon id="Oval-Copy-192" points="363.381718 133.073631 368.49977 127.955414 363.381718 122.837198 358.263665 127.955414"></polygon>
                        <polygon id="Oval-Copy-191" points="383.853927 133.073631 388.971979 127.955414 383.853927 122.837198 378.735875 127.955414"></polygon>
                        <polygon id="Oval-Copy-190" points="404.326136 133.073631 409.444189 127.955414 404.326136 122.837198 399.208084 127.955414"></polygon>
                        <polygon id="Oval-Copy-187" points="25.5902618 153.546497 30.7083142 148.42828 25.5902618 143.310064 20.4722094 148.42828"></polygon>
                        <polygon id="Oval-Copy-186" points="46.0624712 153.546497 51.1805236 148.42828 46.0624712 143.310064 40.9444189 148.42828"></polygon>
                        <polygon id="Oval-Copy-185" points="66.5346807 153.546497 71.652733 148.42828 66.5346807 143.310064 61.4166283 148.42828"></polygon>
                        <polygon id="Oval-Copy-184" points="87.0068901 153.546497 92.1249425 148.42828 87.0068901 143.310064 81.8888378 148.42828"></polygon>
                        <polygon id="Oval-Copy-183" points="107.4791 153.546497 112.597152 148.42828 107.4791 143.310064 102.361047 148.42828"></polygon>
                        <polygon id="Oval-Copy-182" points="127.951309 153.546497 133.069361 148.42828 127.951309 143.310064 122.833257 148.42828"></polygon>
                        <polygon id="Oval-Copy-181" points="148.423518 153.546497 153.541571 148.42828 148.423518 143.310064 143.305466 148.42828"></polygon>
                        <polygon id="Oval-Copy-180" points="168.895728 153.546497 174.01378 148.42828 168.895728 143.310064 163.777676 148.42828"></polygon>
                        <polygon id="Oval-Copy-179" points="189.367937 153.546497 194.48599 148.42828 189.367937 143.310064 184.249885 148.42828"></polygon>
                        <polygon id="Oval-Copy-178" points="209.840147 153.546497 214.958199 148.42828 209.840147 143.310064 204.722094 148.42828"></polygon>
                        <polygon id="Oval-Copy-177" points="230.312356 153.546497 235.430409 148.42828 230.312356 143.310064 225.194304 148.42828"></polygon>
                        <polygon id="Oval-Copy-176" points="250.784566 153.546497 255.902618 148.42828 250.784566 143.310064 245.666513 148.42828"></polygon>
                        <polygon id="Oval-Copy-175" points="271.256775 153.546497 276.374827 148.42828 271.256775 143.310064 266.138723 148.42828"></polygon>
                        <polygon id="Oval-Copy-174" points="291.728985 153.546497 296.847037 148.42828 291.728985 143.310064 286.610932 148.42828"></polygon>
                        <polygon id="Oval-Copy-173" points="312.201194 153.546497 317.319246 148.42828 312.201194 143.310064 307.083142 148.42828"></polygon>
                        <polygon id="Oval-Copy-172" points="332.673403 153.546497 337.791456 148.42828 332.673403 143.310064 327.555351 148.42828"></polygon>
                        <polygon id="Oval-Copy-171" points="353.145613 153.546497 358.263665 148.42828 353.145613 143.310064 348.02756 148.42828"></polygon>
                        <polygon id="Oval-Copy-170" points="373.617822 153.546497 378.735875 148.42828 373.617822 143.310064 368.49977 148.42828"></polygon>
                        <polygon id="Oval-Copy-169" points="394.090032 153.546497 399.208084 148.42828 394.090032 143.310064 388.971979 148.42828"></polygon>
                        <polygon id="Oval-Copy-168" points="414.562241 153.546497 419.680294 148.42828 414.562241 143.310064 409.444189 148.42828"></polygon>
                        <polygon id="Oval-Copy-503" points="15.3541571 174.019363 20.4722094 168.901147 15.3541571 163.78293 10.2361047 168.901147"></polygon>
                        <polygon id="Oval-Copy-502" points="35.8263665 174.019363 40.9444189 168.901147 35.8263665 163.78293 30.7083142 168.901147"></polygon>
                        <polygon id="Oval-Copy-501" points="56.298576 174.019363 61.4166283 168.901147 56.298576 163.78293 51.1805236 168.901147"></polygon>
                        <polygon id="Oval-Copy-500" points="76.7707854 174.019363 81.8888378 168.901147 76.7707854 163.78293 71.652733 168.901147"></polygon>
                        <polygon id="Oval-Copy-499" points="97.2429948 174.019363 102.361047 168.901147 97.2429948 163.78293 92.1249425 168.901147"></polygon>
                        <polygon id="Oval-Copy-498" points="117.715204 174.019363 122.833257 168.901147 117.715204 163.78293 112.597152 168.901147"></polygon>
                        <polygon id="Oval-Copy-497" points="138.187414 174.019363 143.305466 168.901147 138.187414 163.78293 133.069361 168.901147"></polygon>
                        <polygon id="Oval-Copy-496" points="158.659623 174.019363 163.777676 168.901147 158.659623 163.78293 153.541571 168.901147"></polygon>
                        <polygon id="Oval-Copy-495" points="179.131833 174.019363 184.249885 168.901147 179.131833 163.78293 174.01378 168.901147"></polygon>
                        <polygon id="Oval-Copy-494" points="199.604042 174.019363 204.722094 168.901147 199.604042 163.78293 194.48599 168.901147"></polygon>
                        <polygon id="Oval-Copy-493" points="220.076251 174.019363 225.194304 168.901147 220.076251 163.78293 214.958199 168.901147"></polygon>
                        <polygon id="Oval-Copy-492" points="240.548461 174.019363 245.666513 168.901147 240.548461 163.78293 235.430409 168.901147"></polygon>
                        <polygon id="Oval-Copy-491" points="261.02067 174.019363 266.138723 168.901147 261.02067 163.78293 255.902618 168.901147"></polygon>
                        <polygon id="Oval-Copy-490" points="281.49288 174.019363 286.610932 168.901147 281.49288 163.78293 276.374827 168.901147"></polygon>
                        <polygon id="Oval-Copy-489" points="301.965089 174.019363 307.083142 168.901147 301.965089 163.78293 296.847037 168.901147"></polygon>
                        <polygon id="Oval-Copy-488" points="322.437299 174.019363 327.555351 168.901147 322.437299 163.78293 317.319246 168.901147"></polygon>
                        <polygon id="Oval-Copy-487" points="342.909508 174.019363 348.02756 168.901147 342.909508 163.78293 337.791456 168.901147"></polygon>
                        <polygon id="Oval-Copy-486" points="363.381718 174.019363 368.49977 168.901147 363.381718 163.78293 358.263665 168.901147"></polygon>
                        <polygon id="Oval-Copy-485" points="383.853927 174.019363 388.971979 168.901147 383.853927 163.78293 378.735875 168.901147"></polygon>
                        <polygon id="Oval-Copy-484" points="404.326136 174.019363 409.444189 168.901147 404.326136 163.78293 399.208084 168.901147"></polygon>
                        <polygon id="Oval-Copy-481" points="25.5902618 194.49223 30.7083142 189.374013 25.5902618 184.255796 20.4722094 189.374013"></polygon>
                        <polygon id="Oval-Copy-480" points="46.0624712 194.49223 51.1805236 189.374013 46.0624712 184.255796 40.9444189 189.374013"></polygon>
                        <polygon id="Oval-Copy-479" points="66.5346807 194.49223 71.652733 189.374013 66.5346807 184.255796 61.4166283 189.374013"></polygon>
                        <polygon id="Oval-Copy-478" points="87.0068901 194.49223 92.1249425 189.374013 87.0068901 184.255796 81.8888378 189.374013"></polygon>
                        <polygon id="Oval-Copy-477" points="107.4791 194.49223 112.597152 189.374013 107.4791 184.255796 102.361047 189.374013"></polygon>
                        <polygon id="Oval-Copy-476" points="127.951309 194.49223 133.069361 189.374013 127.951309 184.255796 122.833257 189.374013"></polygon>
                        <polygon id="Oval-Copy-475" points="148.423518 194.49223 153.541571 189.374013 148.423518 184.255796 143.305466 189.374013"></polygon>
                        <polygon id="Oval-Copy-474" points="168.895728 194.49223 174.01378 189.374013 168.895728 184.255796 163.777676 189.374013"></polygon>
                        <polygon id="Oval-Copy-473" points="189.367937 194.49223 194.48599 189.374013 189.367937 184.255796 184.249885 189.374013"></polygon>
                        <polygon id="Oval-Copy-472" points="209.840147 194.49223 214.958199 189.374013 209.840147 184.255796 204.722094 189.374013"></polygon>
                        <polygon id="Oval-Copy-471" points="230.312356 194.49223 235.430409 189.374013 230.312356 184.255796 225.194304 189.374013"></polygon>
                        <polygon id="Oval-Copy-470" points="250.784566 194.49223 255.902618 189.374013 250.784566 184.255796 245.666513 189.374013"></polygon>
                        <polygon id="Oval-Copy-469" points="271.256775 194.49223 276.374827 189.374013 271.256775 184.255796 266.138723 189.374013"></polygon>
                        <polygon id="Oval-Copy-468" points="291.728985 194.49223 296.847037 189.374013 291.728985 184.255796 286.610932 189.374013"></polygon>
                        <polygon id="Oval-Copy-467" points="312.201194 194.49223 317.319246 189.374013 312.201194 184.255796 307.083142 189.374013"></polygon>
                        <polygon id="Oval-Copy-466" points="332.673403 194.49223 337.791456 189.374013 332.673403 184.255796 327.555351 189.374013"></polygon>
                        <polygon id="Oval-Copy-465" points="353.145613 194.49223 358.263665 189.374013 353.145613 184.255796 348.02756 189.374013"></polygon>
                        <polygon id="Oval-Copy-464" points="373.617822 194.49223 378.735875 189.374013 373.617822 184.255796 368.49977 189.374013"></polygon>
                        <polygon id="Oval-Copy-463" points="394.090032 194.49223 399.208084 189.374013 394.090032 184.255796 388.971979 189.374013"></polygon>
                        <polygon id="Oval-Copy-462" points="414.562241 194.49223 419.680294 189.374013 414.562241 184.255796 409.444189 189.374013"></polygon>
                        <polygon id="Oval-Copy-461" points="15.3541571 214.965096 20.4722094 209.846879 15.3541571 204.728663 10.2361047 209.846879"></polygon>
                        <polygon id="Oval-Copy-460" points="35.8263665 214.965096 40.9444189 209.846879 35.8263665 204.728663 30.7083142 209.846879"></polygon>
                        <polygon id="Oval-Copy-459" points="56.298576 214.965096 61.4166283 209.846879 56.298576 204.728663 51.1805236 209.846879"></polygon>
                        <polygon id="Oval-Copy-458" points="76.7707854 214.965096 81.8888378 209.846879 76.7707854 204.728663 71.652733 209.846879"></polygon>
                        <polygon id="Oval-Copy-457" points="97.2429948 214.965096 102.361047 209.846879 97.2429948 204.728663 92.1249425 209.846879"></polygon>
                        <polygon id="Oval-Copy-456" points="117.715204 214.965096 122.833257 209.846879 117.715204 204.728663 112.597152 209.846879"></polygon>
                        <polygon id="Oval-Copy-455" points="138.187414 214.965096 143.305466 209.846879 138.187414 204.728663 133.069361 209.846879"></polygon>
                        <polygon id="Oval-Copy-454" points="158.659623 214.965096 163.777676 209.846879 158.659623 204.728663 153.541571 209.846879"></polygon>
                        <polygon id="Oval-Copy-453" points="179.131833 214.965096 184.249885 209.846879 179.131833 204.728663 174.01378 209.846879"></polygon>
                        <polygon id="Oval-Copy-452" points="199.604042 214.965096 204.722094 209.846879 199.604042 204.728663 194.48599 209.846879"></polygon>
                        <polygon id="Oval-Copy-451" points="220.076251 214.965096 225.194304 209.846879 220.076251 204.728663 214.958199 209.846879"></polygon>
                        <polygon id="Oval-Copy-450" points="240.548461 214.965096 245.666513 209.846879 240.548461 204.728663 235.430409 209.846879"></polygon>
                        <polygon id="Oval-Copy-449" points="261.02067 214.965096 266.138723 209.846879 261.02067 204.728663 255.902618 209.846879"></polygon>
                        <polygon id="Oval-Copy-448" points="281.49288 214.965096 286.610932 209.846879 281.49288 204.728663 276.374827 209.846879"></polygon>
                        <polygon id="Oval-Copy-447" points="301.965089 214.965096 307.083142 209.846879 301.965089 204.728663 296.847037 209.846879"></polygon>
                        <polygon id="Oval-Copy-446" points="322.437299 214.965096 327.555351 209.846879 322.437299 204.728663 317.319246 209.846879"></polygon>
                        <polygon id="Oval-Copy-445" points="342.909508 214.965096 348.02756 209.846879 342.909508 204.728663 337.791456 209.846879"></polygon>
                        <polygon id="Oval-Copy-444" points="363.381718 214.965096 368.49977 209.846879 363.381718 204.728663 358.263665 209.846879"></polygon>
                        <polygon id="Oval-Copy-443" points="383.853927 214.965096 388.971979 209.846879 383.853927 204.728663 378.735875 209.846879"></polygon>
                        <polygon id="Oval-Copy-442" points="404.326136 214.965096 409.444189 209.846879 404.326136 204.728663 399.208084 209.846879"></polygon>
                        <polygon id="Oval-Copy-439" points="25.5902618 235.437962 30.7083142 230.319746 25.5902618 225.201529 20.4722094 230.319746"></polygon>
                        <polygon id="Oval-Copy-438" points="46.0624712 235.437962 51.1805236 230.319746 46.0624712 225.201529 40.9444189 230.319746"></polygon>
                        <polygon id="Oval-Copy-437" points="66.5346807 235.437962 71.652733 230.319746 66.5346807 225.201529 61.4166283 230.319746"></polygon>
                        <polygon id="Oval-Copy-436" points="87.0068901 235.437962 92.1249425 230.319746 87.0068901 225.201529 81.8888378 230.319746"></polygon>
                        <polygon id="Oval-Copy-435" points="107.4791 235.437962 112.597152 230.319746 107.4791 225.201529 102.361047 230.319746"></polygon>
                        <polygon id="Oval-Copy-434" points="127.951309 235.437962 133.069361 230.319746 127.951309 225.201529 122.833257 230.319746"></polygon>
                        <polygon id="Oval-Copy-433" points="148.423518 235.437962 153.541571 230.319746 148.423518 225.201529 143.305466 230.319746"></polygon>
                        <polygon id="Oval-Copy-432" points="168.895728 235.437962 174.01378 230.319746 168.895728 225.201529 163.777676 230.319746"></polygon>
                        <polygon id="Oval-Copy-431" points="189.367937 235.437962 194.48599 230.319746 189.367937 225.201529 184.249885 230.319746"></polygon>
                        <polygon id="Oval-Copy-430" points="209.840147 235.437962 214.958199 230.319746 209.840147 225.201529 204.722094 230.319746"></polygon>
                        <polygon id="Oval-Copy-429" points="230.312356 235.437962 235.430409 230.319746 230.312356 225.201529 225.194304 230.319746"></polygon>
                        <polygon id="Oval-Copy-428" points="250.784566 235.437962 255.902618 230.319746 250.784566 225.201529 245.666513 230.319746"></polygon>
                        <polygon id="Oval-Copy-427" points="271.256775 235.437962 276.374827 230.319746 271.256775 225.201529 266.138723 230.319746"></polygon>
                        <polygon id="Oval-Copy-426" points="291.728985 235.437962 296.847037 230.319746 291.728985 225.201529 286.610932 230.319746"></polygon>
                        <polygon id="Oval-Copy-425" points="312.201194 235.437962 317.319246 230.319746 312.201194 225.201529 307.083142 230.319746"></polygon>
                        <polygon id="Oval-Copy-424" points="332.673403 235.437962 337.791456 230.319746 332.673403 225.201529 327.555351 230.319746"></polygon>
                        <polygon id="Oval-Copy-423" points="353.145613 235.437962 358.263665 230.319746 353.145613 225.201529 348.02756 230.319746"></polygon>
                        <polygon id="Oval-Copy-422" points="373.617822 235.437962 378.735875 230.319746 373.617822 225.201529 368.49977 230.319746"></polygon>
                        <polygon id="Oval-Copy-421" points="394.090032 235.437962 399.208084 230.319746 394.090032 225.201529 388.971979 230.319746"></polygon>
                        <polygon id="Oval-Copy-420" points="414.562241 235.437962 419.680294 230.319746 414.562241 225.201529 409.444189 230.319746"></polygon>
                        <polygon id="Oval-Copy-419" points="15.3541571 255.910828 20.4722094 250.792612 15.3541571 245.674395 10.2361047 250.792612"></polygon>
                        <polygon id="Oval-Copy-418" points="35.8263665 255.910828 40.9444189 250.792612 35.8263665 245.674395 30.7083142 250.792612"></polygon>
                        <polygon id="Oval-Copy-417" points="56.298576 255.910828 61.4166283 250.792612 56.298576 245.674395 51.1805236 250.792612"></polygon>
                        <polygon id="Oval-Copy-416" points="76.7707854 255.910828 81.8888378 250.792612 76.7707854 245.674395 71.652733 250.792612"></polygon>
                        <polygon id="Oval-Copy-415" points="97.2429948 255.910828 102.361047 250.792612 97.2429948 245.674395 92.1249425 250.792612"></polygon>
                        <polygon id="Oval-Copy-414" points="117.715204 255.910828 122.833257 250.792612 117.715204 245.674395 112.597152 250.792612"></polygon>
                        <polygon id="Oval-Copy-413" points="138.187414 255.910828 143.305466 250.792612 138.187414 245.674395 133.069361 250.792612"></polygon>
                        <polygon id="Oval-Copy-412" points="158.659623 255.910828 163.777676 250.792612 158.659623 245.674395 153.541571 250.792612"></polygon>
                        <polygon id="Oval-Copy-411" points="179.131833 255.910828 184.249885 250.792612 179.131833 245.674395 174.01378 250.792612"></polygon>
                        <polygon id="Oval-Copy-410" points="199.604042 255.910828 204.722094 250.792612 199.604042 245.674395 194.48599 250.792612"></polygon>
                        <polygon id="Oval-Copy-409" points="220.076251 255.910828 225.194304 250.792612 220.076251 245.674395 214.958199 250.792612"></polygon>
                        <polygon id="Oval-Copy-408" points="240.548461 255.910828 245.666513 250.792612 240.548461 245.674395 235.430409 250.792612"></polygon>
                        <polygon id="Oval-Copy-407" points="261.02067 255.910828 266.138723 250.792612 261.02067 245.674395 255.902618 250.792612"></polygon>
                        <polygon id="Oval-Copy-406" points="281.49288 255.910828 286.610932 250.792612 281.49288 245.674395 276.374827 250.792612"></polygon>
                        <polygon id="Oval-Copy-405" points="301.965089 255.910828 307.083142 250.792612 301.965089 245.674395 296.847037 250.792612"></polygon>
                        <polygon id="Oval-Copy-404" points="322.437299 255.910828 327.555351 250.792612 322.437299 245.674395 317.319246 250.792612"></polygon>
                        <polygon id="Oval-Copy-403" points="342.909508 255.910828 348.02756 250.792612 342.909508 245.674395 337.791456 250.792612"></polygon>
                        <polygon id="Oval-Copy-402" points="363.381718 255.910828 368.49977 250.792612 363.381718 245.674395 358.263665 250.792612"></polygon>
                        <polygon id="Oval-Copy-401" points="383.853927 255.910828 388.971979 250.792612 383.853927 245.674395 378.735875 250.792612"></polygon>
                        <polygon id="Oval-Copy-400" points="404.326136 255.910828 409.444189 250.792612 404.326136 245.674395 399.208084 250.792612"></polygon>
                        <polygon id="Oval-Copy-397" points="25.5902618 276.383695 30.7083142 271.265478 25.5902618 266.147262 20.4722094 271.265478"></polygon>
                        <polygon id="Oval-Copy-396" points="46.0624712 276.383695 51.1805236 271.265478 46.0624712 266.147262 40.9444189 271.265478"></polygon>
                        <polygon id="Oval-Copy-395" points="66.5346807 276.383695 71.652733 271.265478 66.5346807 266.147262 61.4166283 271.265478"></polygon>
                        <polygon id="Oval-Copy-394" points="87.0068901 276.383695 92.1249425 271.265478 87.0068901 266.147262 81.8888378 271.265478"></polygon>
                        <polygon id="Oval-Copy-393" points="107.4791 276.383695 112.597152 271.265478 107.4791 266.147262 102.361047 271.265478"></polygon>
                        <polygon id="Oval-Copy-392" points="127.951309 276.383695 133.069361 271.265478 127.951309 266.147262 122.833257 271.265478"></polygon>
                        <polygon id="Oval-Copy-391" points="148.423518 276.383695 153.541571 271.265478 148.423518 266.147262 143.305466 271.265478"></polygon>
                        <polygon id="Oval-Copy-390" points="168.895728 276.383695 174.01378 271.265478 168.895728 266.147262 163.777676 271.265478"></polygon>
                        <polygon id="Oval-Copy-389" points="189.367937 276.383695 194.48599 271.265478 189.367937 266.147262 184.249885 271.265478"></polygon>
                        <polygon id="Oval-Copy-388" points="209.840147 276.383695 214.958199 271.265478 209.840147 266.147262 204.722094 271.265478"></polygon>
                        <polygon id="Oval-Copy-387" points="230.312356 276.383695 235.430409 271.265478 230.312356 266.147262 225.194304 271.265478"></polygon>
                        <polygon id="Oval-Copy-386" points="250.784566 276.383695 255.902618 271.265478 250.784566 266.147262 245.666513 271.265478"></polygon>
                        <polygon id="Oval-Copy-385" points="271.256775 276.383695 276.374827 271.265478 271.256775 266.147262 266.138723 271.265478"></polygon>
                        <polygon id="Oval-Copy-384" points="291.728985 276.383695 296.847037 271.265478 291.728985 266.147262 286.610932 271.265478"></polygon>
                        <polygon id="Oval-Copy-383" points="312.201194 276.383695 317.319246 271.265478 312.201194 266.147262 307.083142 271.265478"></polygon>
                        <polygon id="Oval-Copy-382" points="332.673403 276.383695 337.791456 271.265478 332.673403 266.147262 327.555351 271.265478"></polygon>
                        <polygon id="Oval-Copy-381" points="353.145613 276.383695 358.263665 271.265478 353.145613 266.147262 348.02756 271.265478"></polygon>
                        <polygon id="Oval-Copy-380" points="373.617822 276.383695 378.735875 271.265478 373.617822 266.147262 368.49977 271.265478"></polygon>
                        <polygon id="Oval-Copy-379" points="394.090032 276.383695 399.208084 271.265478 394.090032 266.147262 388.971979 271.265478"></polygon>
                        <polygon id="Oval-Copy-378" points="414.562241 276.383695 419.680294 271.265478 414.562241 266.147262 409.444189 271.265478"></polygon>
                        <polygon id="Oval-Copy-377" points="15.3541571 296.856561 20.4722094 291.738344 15.3541571 286.620128 10.2361047 291.738344"></polygon>
                        <polygon id="Oval-Copy-376" points="35.8263665 296.856561 40.9444189 291.738344 35.8263665 286.620128 30.7083142 291.738344"></polygon>
                        <polygon id="Oval-Copy-375" points="56.298576 296.856561 61.4166283 291.738344 56.298576 286.620128 51.1805236 291.738344"></polygon>
                        <polygon id="Oval-Copy-374" points="76.7707854 296.856561 81.8888378 291.738344 76.7707854 286.620128 71.652733 291.738344"></polygon>
                        <polygon id="Oval-Copy-373" points="97.2429948 296.856561 102.361047 291.738344 97.2429948 286.620128 92.1249425 291.738344"></polygon>
                        <polygon id="Oval-Copy-372" points="117.715204 296.856561 122.833257 291.738344 117.715204 286.620128 112.597152 291.738344"></polygon>
                        <polygon id="Oval-Copy-371" points="138.187414 296.856561 143.305466 291.738344 138.187414 286.620128 133.069361 291.738344"></polygon>
                        <polygon id="Oval-Copy-370" points="158.659623 296.856561 163.777676 291.738344 158.659623 286.620128 153.541571 291.738344"></polygon>
                        <polygon id="Oval-Copy-369" points="179.131833 296.856561 184.249885 291.738344 179.131833 286.620128 174.01378 291.738344"></polygon>
                        <polygon id="Oval-Copy-368" points="199.604042 296.856561 204.722094 291.738344 199.604042 286.620128 194.48599 291.738344"></polygon>
                        <polygon id="Oval-Copy-367" points="220.076251 296.856561 225.194304 291.738344 220.076251 286.620128 214.958199 291.738344"></polygon>
                        <polygon id="Oval-Copy-366" points="240.548461 296.856561 245.666513 291.738344 240.548461 286.620128 235.430409 291.738344"></polygon>
                        <polygon id="Oval-Copy-365" points="261.02067 296.856561 266.138723 291.738344 261.02067 286.620128 255.902618 291.738344"></polygon>
                        <polygon id="Oval-Copy-364" points="281.49288 296.856561 286.610932 291.738344 281.49288 286.620128 276.374827 291.738344"></polygon>
                        <polygon id="Oval-Copy-363" points="301.965089 296.856561 307.083142 291.738344 301.965089 286.620128 296.847037 291.738344"></polygon>
                        <polygon id="Oval-Copy-362" points="322.437299 296.856561 327.555351 291.738344 322.437299 286.620128 317.319246 291.738344"></polygon>
                        <polygon id="Oval-Copy-361" points="342.909508 296.856561 348.02756 291.738344 342.909508 286.620128 337.791456 291.738344"></polygon>
                        <polygon id="Oval-Copy-360" points="363.381718 296.856561 368.49977 291.738344 363.381718 286.620128 358.263665 291.738344"></polygon>
                        <polygon id="Oval-Copy-359" points="383.853927 296.856561 388.971979 291.738344 383.853927 286.620128 378.735875 291.738344"></polygon>
                        <polygon id="Oval-Copy-358" points="404.326136 296.856561 409.444189 291.738344 404.326136 286.620128 399.208084 291.738344"></polygon>
                        <polygon id="Oval-Copy-355" points="25.5902618 317.329427 30.7083142 312.211211 25.5902618 307.092994 20.4722094 312.211211"></polygon>
                        <polygon id="Oval-Copy-354" points="46.0624712 317.329427 51.1805236 312.211211 46.0624712 307.092994 40.9444189 312.211211"></polygon>
                        <polygon id="Oval-Copy-353" points="66.5346807 317.329427 71.652733 312.211211 66.5346807 307.092994 61.4166283 312.211211"></polygon>
                        <polygon id="Oval-Copy-352" points="87.0068901 317.329427 92.1249425 312.211211 87.0068901 307.092994 81.8888378 312.211211"></polygon>
                        <polygon id="Oval-Copy-351" points="107.4791 317.329427 112.597152 312.211211 107.4791 307.092994 102.361047 312.211211"></polygon>
                        <polygon id="Oval-Copy-350" points="127.951309 317.329427 133.069361 312.211211 127.951309 307.092994 122.833257 312.211211"></polygon>
                        <polygon id="Oval-Copy-349" points="148.423518 317.329427 153.541571 312.211211 148.423518 307.092994 143.305466 312.211211"></polygon>
                        <polygon id="Oval-Copy-348" points="168.895728 317.329427 174.01378 312.211211 168.895728 307.092994 163.777676 312.211211"></polygon>
                        <polygon id="Oval-Copy-347" points="189.367937 317.329427 194.48599 312.211211 189.367937 307.092994 184.249885 312.211211"></polygon>
                        <polygon id="Oval-Copy-346" points="209.840147 317.329427 214.958199 312.211211 209.840147 307.092994 204.722094 312.211211"></polygon>
                        <polygon id="Oval-Copy-345" points="230.312356 317.329427 235.430409 312.211211 230.312356 307.092994 225.194304 312.211211"></polygon>
                        <polygon id="Oval-Copy-344" points="250.784566 317.329427 255.902618 312.211211 250.784566 307.092994 245.666513 312.211211"></polygon>
                        <polygon id="Oval-Copy-343" points="271.256775 317.329427 276.374827 312.211211 271.256775 307.092994 266.138723 312.211211"></polygon>
                        <polygon id="Oval-Copy-342" points="291.728985 317.329427 296.847037 312.211211 291.728985 307.092994 286.610932 312.211211"></polygon>
                        <polygon id="Oval-Copy-341" points="312.201194 317.329427 317.319246 312.211211 312.201194 307.092994 307.083142 312.211211"></polygon>
                        <polygon id="Oval-Copy-340" points="332.673403 317.329427 337.791456 312.211211 332.673403 307.092994 327.555351 312.211211"></polygon>
                        <polygon id="Oval-Copy-339" points="353.145613 317.329427 358.263665 312.211211 353.145613 307.092994 348.02756 312.211211"></polygon>
                        <polygon id="Oval-Copy-338" points="373.617822 317.329427 378.735875 312.211211 373.617822 307.092994 368.49977 312.211211"></polygon>
                        <polygon id="Oval-Copy-337" points="394.090032 317.329427 399.208084 312.211211 394.090032 307.092994 388.971979 312.211211"></polygon>
                        <polygon id="Oval-Copy-336" points="414.562241 317.329427 419.680294 312.211211 414.562241 307.092994 409.444189 312.211211"></polygon>
                        <polygon id="Oval-Copy-671" points="15.3541571 337.802294 20.4722094 332.684077 15.3541571 327.56586 10.2361047 332.684077"></polygon>
                        <polygon id="Oval-Copy-670" points="35.8263665 337.802294 40.9444189 332.684077 35.8263665 327.56586 30.7083142 332.684077"></polygon>
                        <polygon id="Oval-Copy-669" points="56.298576 337.802294 61.4166283 332.684077 56.298576 327.56586 51.1805236 332.684077"></polygon>
                        <polygon id="Oval-Copy-668" points="76.7707854 337.802294 81.8888378 332.684077 76.7707854 327.56586 71.652733 332.684077"></polygon>
                        <polygon id="Oval-Copy-667" points="97.2429948 337.802294 102.361047 332.684077 97.2429948 327.56586 92.1249425 332.684077"></polygon>
                        <polygon id="Oval-Copy-666" points="117.715204 337.802294 122.833257 332.684077 117.715204 327.56586 112.597152 332.684077"></polygon>
                        <polygon id="Oval-Copy-665" points="138.187414 337.802294 143.305466 332.684077 138.187414 327.56586 133.069361 332.684077"></polygon>
                        <polygon id="Oval-Copy-664" points="158.659623 337.802294 163.777676 332.684077 158.659623 327.56586 153.541571 332.684077"></polygon>
                        <polygon id="Oval-Copy-663" points="179.131833 337.802294 184.249885 332.684077 179.131833 327.56586 174.01378 332.684077"></polygon>
                        <polygon id="Oval-Copy-662" points="199.604042 337.802294 204.722094 332.684077 199.604042 327.56586 194.48599 332.684077"></polygon>
                        <polygon id="Oval-Copy-661" points="220.076251 337.802294 225.194304 332.684077 220.076251 327.56586 214.958199 332.684077"></polygon>
                        <polygon id="Oval-Copy-660" points="240.548461 337.802294 245.666513 332.684077 240.548461 327.56586 235.430409 332.684077"></polygon>
                        <polygon id="Oval-Copy-659" points="261.02067 337.802294 266.138723 332.684077 261.02067 327.56586 255.902618 332.684077"></polygon>
                        <polygon id="Oval-Copy-658" points="281.49288 337.802294 286.610932 332.684077 281.49288 327.56586 276.374827 332.684077"></polygon>
                        <polygon id="Oval-Copy-657" points="301.965089 337.802294 307.083142 332.684077 301.965089 327.56586 296.847037 332.684077"></polygon>
                        <polygon id="Oval-Copy-656" points="322.437299 337.802294 327.555351 332.684077 322.437299 327.56586 317.319246 332.684077"></polygon>
                        <polygon id="Oval-Copy-655" points="342.909508 337.802294 348.02756 332.684077 342.909508 327.56586 337.791456 332.684077"></polygon>
                        <polygon id="Oval-Copy-654" points="363.381718 337.802294 368.49977 332.684077 363.381718 327.56586 358.263665 332.684077"></polygon>
                        <polygon id="Oval-Copy-653" points="383.853927 337.802294 388.971979 332.684077 383.853927 327.56586 378.735875 332.684077"></polygon>
                        <polygon id="Oval-Copy-652" points="404.326136 337.802294 409.444189 332.684077 404.326136 327.56586 399.208084 332.684077"></polygon>
                        <polygon id="Oval-Copy-649" points="25.5902618 358.27516 30.7083142 353.156943 25.5902618 348.038727 20.4722094 353.156943"></polygon>
                        <polygon id="Oval-Copy-648" points="46.0624712 358.27516 51.1805236 353.156943 46.0624712 348.038727 40.9444189 353.156943"></polygon>
                        <polygon id="Oval-Copy-647" points="66.5346807 358.27516 71.652733 353.156943 66.5346807 348.038727 61.4166283 353.156943"></polygon>
                        <polygon id="Oval-Copy-646" points="87.0068901 358.27516 92.1249425 353.156943 87.0068901 348.038727 81.8888378 353.156943"></polygon>
                        <polygon id="Oval-Copy-645" points="107.4791 358.27516 112.597152 353.156943 107.4791 348.038727 102.361047 353.156943"></polygon>
                        <polygon id="Oval-Copy-644" points="127.951309 358.27516 133.069361 353.156943 127.951309 348.038727 122.833257 353.156943"></polygon>
                        <polygon id="Oval-Copy-643" points="148.423518 358.27516 153.541571 353.156943 148.423518 348.038727 143.305466 353.156943"></polygon>
                        <polygon id="Oval-Copy-642" points="168.895728 358.27516 174.01378 353.156943 168.895728 348.038727 163.777676 353.156943"></polygon>
                        <polygon id="Oval-Copy-641" points="189.367937 358.27516 194.48599 353.156943 189.367937 348.038727 184.249885 353.156943"></polygon>
                        <polygon id="Oval-Copy-640" points="209.840147 358.27516 214.958199 353.156943 209.840147 348.038727 204.722094 353.156943"></polygon>
                        <polygon id="Oval-Copy-639" points="230.312356 358.27516 235.430409 353.156943 230.312356 348.038727 225.194304 353.156943"></polygon>
                        <polygon id="Oval-Copy-638" points="250.784566 358.27516 255.902618 353.156943 250.784566 348.038727 245.666513 353.156943"></polygon>
                        <polygon id="Oval-Copy-637" points="271.256775 358.27516 276.374827 353.156943 271.256775 348.038727 266.138723 353.156943"></polygon>
                        <polygon id="Oval-Copy-636" points="291.728985 358.27516 296.847037 353.156943 291.728985 348.038727 286.610932 353.156943"></polygon>
                        <polygon id="Oval-Copy-635" points="312.201194 358.27516 317.319246 353.156943 312.201194 348.038727 307.083142 353.156943"></polygon>
                        <polygon id="Oval-Copy-634" points="332.673403 358.27516 337.791456 353.156943 332.673403 348.038727 327.555351 353.156943"></polygon>
                        <polygon id="Oval-Copy-633" points="353.145613 358.27516 358.263665 353.156943 353.145613 348.038727 348.02756 353.156943"></polygon>
                        <polygon id="Oval-Copy-632" points="373.617822 358.27516 378.735875 353.156943 373.617822 348.038727 368.49977 353.156943"></polygon>
                        <polygon id="Oval-Copy-631" points="394.090032 358.27516 399.208084 353.156943 394.090032 348.038727 388.971979 353.156943"></polygon>
                        <polygon id="Oval-Copy-630" points="414.562241 358.27516 419.680294 353.156943 414.562241 348.038727 409.444189 353.156943"></polygon>
                        <polygon id="Oval-Copy-629" points="15.3541571 378.748026 20.4722094 373.62981 15.3541571 368.511593 10.2361047 373.62981"></polygon>
                        <polygon id="Oval-Copy-628" points="35.8263665 378.748026 40.9444189 373.62981 35.8263665 368.511593 30.7083142 373.62981"></polygon>
                        <polygon id="Oval-Copy-627" points="56.298576 378.748026 61.4166283 373.62981 56.298576 368.511593 51.1805236 373.62981"></polygon>
                        <polygon id="Oval-Copy-626" points="76.7707854 378.748026 81.8888378 373.62981 76.7707854 368.511593 71.652733 373.62981"></polygon>
                        <polygon id="Oval-Copy-625" points="97.2429948 378.748026 102.361047 373.62981 97.2429948 368.511593 92.1249425 373.62981"></polygon>
                        <polygon id="Oval-Copy-624" points="117.715204 378.748026 122.833257 373.62981 117.715204 368.511593 112.597152 373.62981"></polygon>
                        <polygon id="Oval-Copy-623" points="138.187414 378.748026 143.305466 373.62981 138.187414 368.511593 133.069361 373.62981"></polygon>
                        <polygon id="Oval-Copy-622" points="158.659623 378.748026 163.777676 373.62981 158.659623 368.511593 153.541571 373.62981"></polygon>
                        <polygon id="Oval-Copy-621" points="179.131833 378.748026 184.249885 373.62981 179.131833 368.511593 174.01378 373.62981"></polygon>
                        <polygon id="Oval-Copy-620" points="199.604042 378.748026 204.722094 373.62981 199.604042 368.511593 194.48599 373.62981"></polygon>
                        <polygon id="Oval-Copy-619" points="220.076251 378.748026 225.194304 373.62981 220.076251 368.511593 214.958199 373.62981"></polygon>
                        <polygon id="Oval-Copy-618" points="240.548461 378.748026 245.666513 373.62981 240.548461 368.511593 235.430409 373.62981"></polygon>
                        <polygon id="Oval-Copy-617" points="261.02067 378.748026 266.138723 373.62981 261.02067 368.511593 255.902618 373.62981"></polygon>
                        <polygon id="Oval-Copy-616" points="281.49288 378.748026 286.610932 373.62981 281.49288 368.511593 276.374827 373.62981"></polygon>
                        <polygon id="Oval-Copy-615" points="301.965089 378.748026 307.083142 373.62981 301.965089 368.511593 296.847037 373.62981"></polygon>
                        <polygon id="Oval-Copy-614" points="322.437299 378.748026 327.555351 373.62981 322.437299 368.511593 317.319246 373.62981"></polygon>
                        <polygon id="Oval-Copy-613" points="342.909508 378.748026 348.02756 373.62981 342.909508 368.511593 337.791456 373.62981"></polygon>
                        <polygon id="Oval-Copy-612" points="363.381718 378.748026 368.49977 373.62981 363.381718 368.511593 358.263665 373.62981"></polygon>
                        <polygon id="Oval-Copy-611" points="383.853927 378.748026 388.971979 373.62981 383.853927 368.511593 378.735875 373.62981"></polygon>
                        <polygon id="Oval-Copy-610" points="404.326136 378.748026 409.444189 373.62981 404.326136 368.511593 399.208084 373.62981"></polygon>
                        <polygon id="Oval-Copy-607" points="25.5902618 399.220892 30.7083142 394.102676 25.5902618 388.984459 20.4722094 394.102676"></polygon>
                        <polygon id="Oval-Copy-606" points="46.0624712 399.220892 51.1805236 394.102676 46.0624712 388.984459 40.9444189 394.102676"></polygon>
                        <polygon id="Oval-Copy-605" points="66.5346807 399.220892 71.652733 394.102676 66.5346807 388.984459 61.4166283 394.102676"></polygon>
                        <polygon id="Oval-Copy-604" points="87.0068901 399.220892 92.1249425 394.102676 87.0068901 388.984459 81.8888378 394.102676"></polygon>
                        <polygon id="Oval-Copy-603" points="107.4791 399.220892 112.597152 394.102676 107.4791 388.984459 102.361047 394.102676"></polygon>
                        <polygon id="Oval-Copy-602" points="127.951309 399.220892 133.069361 394.102676 127.951309 388.984459 122.833257 394.102676"></polygon>
                        <polygon id="Oval-Copy-601" points="148.423518 399.220892 153.541571 394.102676 148.423518 388.984459 143.305466 394.102676"></polygon>
                        <polygon id="Oval-Copy-600" points="168.895728 399.220892 174.01378 394.102676 168.895728 388.984459 163.777676 394.102676"></polygon>
                        <polygon id="Oval-Copy-599" points="189.367937 399.220892 194.48599 394.102676 189.367937 388.984459 184.249885 394.102676"></polygon>
                        <polygon id="Oval-Copy-598" points="209.840147 399.220892 214.958199 394.102676 209.840147 388.984459 204.722094 394.102676"></polygon>
                        <polygon id="Oval-Copy-597" points="230.312356 399.220892 235.430409 394.102676 230.312356 388.984459 225.194304 394.102676"></polygon>
                        <polygon id="Oval-Copy-596" points="250.784566 399.220892 255.902618 394.102676 250.784566 388.984459 245.666513 394.102676"></polygon>
                        <polygon id="Oval-Copy-595" points="271.256775 399.220892 276.374827 394.102676 271.256775 388.984459 266.138723 394.102676"></polygon>
                        <polygon id="Oval-Copy-594" points="291.728985 399.220892 296.847037 394.102676 291.728985 388.984459 286.610932 394.102676"></polygon>
                        <polygon id="Oval-Copy-593" points="312.201194 399.220892 317.319246 394.102676 312.201194 388.984459 307.083142 394.102676"></polygon>
                        <polygon id="Oval-Copy-592" points="332.673403 399.220892 337.791456 394.102676 332.673403 388.984459 327.555351 394.102676"></polygon>
                        <polygon id="Oval-Copy-591" points="353.145613 399.220892 358.263665 394.102676 353.145613 388.984459 348.02756 394.102676"></polygon>
                        <polygon id="Oval-Copy-590" points="373.617822 399.220892 378.735875 394.102676 373.617822 388.984459 368.49977 394.102676"></polygon>
                        <polygon id="Oval-Copy-589" points="394.090032 399.220892 399.208084 394.102676 394.090032 388.984459 388.971979 394.102676"></polygon>
                        <polygon id="Oval-Copy-588" points="414.562241 399.220892 419.680294 394.102676 414.562241 388.984459 409.444189 394.102676"></polygon>
                    </g>
                </g>
            </g>
        </g>
    </g>
</svg>